ERROR|Wed, 17 Jul 2013 00:14:38 -0400|visitor|content|/img/logo.png|69.243.20.95|live|404 - Page not found. Visitor came directly to this page and may have typed the URL incorrectly.
ERROR|Wed, 17 Jul 2013 00:24:31 -0400|visitor|content|/img/logo.png|198.228.228.24|live|404 - Page not found. Visitor came directly to this page and may have typed the URL incorrectly.
ERROR|Wed, 17 Jul 2013 00:59:13 -0400|visitor|content|/robots.txt|37.58.52.15|live|404 - Page not found. Visitor came directly to this page and may have typed the URL incorrectly.
ERROR|Wed, 17 Jul 2013 01:08:49 -0400|visitor|content|/robots.txt|69.49.102.175||404 - Page not found. Visitor came directly to this page and may have typed the URL incorrectly.
ERROR|Wed, 17 Jul 2013 01:21:20 -0400|visitor|content|/robots.txt|65.55.55.231|live|404 - Page not found. Visitor came directly to this page and may have typed the URL incorrectly.
ERROR|Wed, 17 Jul 2013 01:26:39 -0400|visitor|content|/robots.txt|46.165.197.151|live|404 - Page not found. Visitor came directly to this page and may have typed the URL incorrectly.
ERROR|Wed, 17 Jul 2013 01:34:28 -0400|visitor|content|/robots.txt|199.21.99.108|live|404 - Page not found. Visitor came directly to this page and may have typed the URL incorrectly.
ERROR|Wed, 17 Jul 2013 01:36:40 -0400|visitor|content|/blog/the-balanced-brown-bag/FW_TEST|65.55.55.231|live|404 - Page not found. Visitor came directly to this page and may have typed the URL incorrectly.
ERROR|Wed, 17 Jul 2013 02:33:10 -0400|visitor|content|/robots.txt|65.55.55.231|live|404 - Page not found. Visitor came directly to this page and may have typed the URL incorrectly.
ERROR|Wed, 17 Jul 2013 02:43:44 -0400|visitor|content|/blog/the-balanced-brown-bag/FW_TEST|65.55.55.231|live|404 - Page not found. Visitor came directly to this page and may have typed the URL incorrectly.
ERROR|Wed, 17 Jul 2013 03:16:16 -0400|visitor|content|/robots.txt|180.76.5.27|live|404 - Page not found. Visitor came directly to this page and may have typed the URL incorrectly.
ERROR|Wed, 17 Jul 2013 03:25:54 -0400|visitor|content|/robots.txt|208.115.113.91|live|404 - Page not found. Visitor came directly to this page and may have typed the URL incorrectly.
ERROR|Wed, 17 Jul 2013 05:12:05 -0400|visitor|content|/img/logo.png|108.18.144.217|live|404 - Page not found. Visitor came directly to this page and may have typed the URL incorrectly.
ERROR|Wed, 17 Jul 2013 05:12:09 -0400|visitor|content|/img/logo.png|108.18.144.217|live|404 - Page not found. Visitor came directly to this page and may have typed the URL incorrectly.
ERROR|Wed, 17 Jul 2013 05:19:45 -0400|visitor|content|/img/logo.png|174.236.230.192|live|404 - Page not found. Visitor came directly to this page and may have typed the URL incorrectly.
ERROR|Wed, 17 Jul 2013 05:53:13 -0400|visitor|content|/robots.txt|173.192.235.226|live|404 - Page not found. Visitor came directly to this page and may have typed the URL incorrectly.
ERROR|Wed, 17 Jul 2013 05:53:56 -0400|visitor|content|/blog/FW_TEST|173.192.235.226|live|404 - Page not found. Visitor came directly to this page and may have typed the URL incorrectly.
ERROR|Wed, 17 Jul 2013 05:54:31 -0400|visitor|content|/FW_TEST|173.192.235.226|live|404 - Page not found. Visitor came directly to this page and may have typed the URL incorrectly.
ERROR|Wed, 17 Jul 2013 07:15:28 -0400|visitor|content|/apple-touch-icon-72x72-precomposed.png|72.196.232.18|live|404 - Page not found. Visitor came directly to this page and may have typed the URL incorrectly.
ERROR|Wed, 17 Jul 2013 07:15:29 -0400|visitor|content|/apple-touch-icon-72x72.png|72.196.232.18|live|404 - Page not found. Visitor came directly to this page and may have typed the URL incorrectly.
ERROR|Wed, 17 Jul 2013 07:15:29 -0400|visitor|content|/apple-touch-icon-precomposed.png|72.196.232.18|live|404 - Page not found. Visitor came directly to this page and may have typed the URL incorrectly.
ERROR|Wed, 17 Jul 2013 07:15:30 -0400|visitor|content|/apple-touch-icon.png|72.196.232.18|live|404 - Page not found. Visitor came directly to this page and may have typed the URL incorrectly.
ERROR|Wed, 17 Jul 2013 07:17:38 -0400|visitor|content|/img/logo.png|70.208.152.32|live|404 - Page not found. Visitor came directly to this page and may have typed the URL incorrectly.
ERROR|Wed, 17 Jul 2013 07:31:03 -0400|visitor|content|/robots.txt|66.249.72.73|live|404 - Page not found. Visitor came directly to this page and may have typed the URL incorrectly.
INFO|Wed, 17 Jul 2013 07:32:03 -0400|site|favicon|/favicon.ico|97.82.169.96|live|The site favicon could not be found.
INFO|Wed, 17 Jul 2013 07:50:55 -0400|site|favicon|/favicon.ico|72.196.232.18|live|The site favicon could not be found.
ERROR|Wed, 17 Jul 2013 07:59:13 -0400|visitor|content|/img/logo.png|108.84.246.242|live|404 - Page not found. Visitor came directly to this page and may have typed the URL incorrectly.
ERROR|Wed, 17 Jul 2013 08:05:12 -0400|visitor|content|/img/logo.png|151.188.105.181|live|404 - Page not found. Visitor came directly to this page and may have typed the URL incorrectly.
INFO|Wed, 17 Jul 2013 08:14:00 -0400|site|favicon|/favicon.ico|97.82.169.96|live|The site favicon could not be found.
INFO|Wed, 17 Jul 2013 08:14:04 -0400|site|favicon|/favicon.ico|97.82.169.96|live|The site favicon could not be found.
ERROR|Wed, 17 Jul 2013 08:40:26 -0400|visitor|content|/img/logo.png|24.127.48.168|live|404 - Page not found. Visitor came directly to this page and may have typed the URL incorrectly.
ERROR|Wed, 17 Jul 2013 08:40:31 -0400|visitor|content|/img/logo.png|24.127.48.168|live|404 - Page not found. Visitor came directly to this page and may have typed the URL incorrectly.
ERROR|Wed, 17 Jul 2013 08:49:06 -0400|visitor|content|/img/logo.png|24.127.48.168|live|404 - Page not found. Visitor came directly to this page and may have typed the URL incorrectly.
INFO|Wed, 17 Jul 2013 09:11:39 -0400|site|favicon|/favicon.ico|97.82.169.96|live|The site favicon could not be found.
INFO|Wed, 17 Jul 2013 09:11:39 -0400|site|favicon|/favicon.ico|97.82.169.96|live|The site favicon could not be found.
INFO|Wed, 17 Jul 2013 09:11:40 -0400|site|favicon|/favicon.ico|97.82.169.96|live|The site favicon could not be found.
INFO|Wed, 17 Jul 2013 09:11:40 -0400|site|favicon|/favicon.ico|97.82.169.96|live|The site favicon could not be found.
INFO|Wed, 17 Jul 2013 09:11:50 -0400|site|favicon|/favicon.ico|97.82.169.96|live|The site favicon could not be found.
INFO|Wed, 17 Jul 2013 09:11:51 -0400|site|favicon|/favicon.ico|97.82.169.96|live|The site favicon could not be found.
INFO|Wed, 17 Jul 2013 09:12:00 -0400|site|favicon|/favicon.ico|97.82.169.96|live|The site favicon could not be found.
INFO|Wed, 17 Jul 2013 09:12:02 -0400|site|favicon|/favicon.ico|97.82.169.96|live|The site favicon could not be found.
INFO|Wed, 17 Jul 2013 09:12:04 -0400|site|favicon|/favicon.ico|97.82.169.96|live|The site favicon could not be found.
INFO|Wed, 17 Jul 2013 09:12:04 -0400|site|favicon|/favicon.ico|97.82.169.96|live|The site favicon could not be found.
INFO|Wed, 17 Jul 2013 09:12:06 -0400|site|favicon|/favicon.ico|97.82.169.96|live|The site favicon could not be found.
INFO|Wed, 17 Jul 2013 09:12:06 -0400|site|favicon|/favicon.ico|97.82.169.96|live|The site favicon could not be found.
INFO|Wed, 17 Jul 2013 09:12:09 -0400|site|favicon|/favicon.ico|97.82.169.96|live|The site favicon could not be found.
INFO|Wed, 17 Jul 2013 09:12:09 -0400|site|favicon|/favicon.ico|97.82.169.96|live|The site favicon could not be found.
INFO|Wed, 17 Jul 2013 09:12:09 -0400|site|favicon|/favicon.ico|97.82.169.96|live|The site favicon could not be found.
INFO|Wed, 17 Jul 2013 09:12:10 -0400|site|favicon|/favicon.ico|97.82.169.96|live|The site favicon could not be found.
INFO|Wed, 17 Jul 2013 09:12:14 -0400|site|favicon|/favicon.ico|97.82.169.96|live|The site favicon could not be found.
INFO|Wed, 17 Jul 2013 09:14:26 -0400|site|favicon|/favicon.ico|97.82.169.96|live|The site favicon could not be found.
INFO|Wed, 17 Jul 2013 09:14:30 -0400|site|favicon|/favicon.ico|97.82.169.96|live|The site favicon could not be found.
INFO|Wed, 17 Jul 2013 09:14:30 -0400|site|favicon|/favicon.ico|97.82.169.96|live|The site favicon could not be found.
INFO|Wed, 17 Jul 2013 09:14:36 -0400|site|favicon|/favicon.ico|97.82.169.96|live|The site favicon could not be found.
ERROR|Wed, 17 Jul 2013 09:17:35 -0400|visitor|content|/robots.txt|130.185.109.210|live|404 - Page not found. Visitor came directly to this page and may have typed the URL incorrectly.
INFO|Wed, 17 Jul 2013 09:26:10 -0400|site|favicon|/favicon.ico|24.92.60.138|live|The site favicon could not be found.
INFO|Wed, 17 Jul 2013 09:26:10 -0400|site|favicon|/favicon.ico|24.92.60.138|live|The site favicon could not be found.
ERROR|Wed, 17 Jul 2013 09:42:54 -0400|visitor|content|/img/logo.png|174.255.20.222|live|404 - Page not found. Visitor came directly to this page and may have typed the URL incorrectly.
ERROR|Wed, 17 Jul 2013 09:51:52 -0400|visitor|content|/img/logo.png|174.227.135.126|live|404 - Page not found. Visitor came directly to this page and may have typed the URL incorrectly.
INFO|Wed, 17 Jul 2013 10:04:31 -0400|site|favicon|/favicon.ico|97.82.169.96|live|The site favicon could not be found.
INFO|Wed, 17 Jul 2013 10:04:31 -0400|site|favicon|/favicon.ico|97.82.169.96|live|The site favicon could not be found.
INFO|Wed, 17 Jul 2013 10:04:31 -0400|site|favicon|/favicon.ico|97.82.169.96|live|The site favicon could not be found.
INFO|Wed, 17 Jul 2013 10:04:32 -0400|site|favicon|/favicon.ico|97.82.169.96|live|The site favicon could not be found.
INFO|Wed, 17 Jul 2013 10:04:51 -0400|site|favicon|/favicon.ico|97.82.169.96|live|The site favicon could not be found.
INFO|Wed, 17 Jul 2013 10:04:51 -0400|site|favicon|/favicon.ico|97.82.169.96|live|The site favicon could not be found.
INFO|Wed, 17 Jul 2013 10:04:52 -0400|site|favicon|/favicon.ico|97.82.169.96|live|The site favicon could not be found.
INFO|Wed, 17 Jul 2013 10:04:52 -0400|site|favicon|/favicon.ico|97.82.169.96|live|The site favicon could not be found.
INFO|Wed, 17 Jul 2013 10:15:00 -0400|site|favicon|/favicon.ico|98.169.138.71|live|The site favicon could not be found.
ERROR|Wed, 17 Jul 2013 10:35:47 -0400|visitor|content|/img/logo.png|8.28.19.122|live|404 - Page not found. Visitor came directly to this page and may have typed the URL incorrectly.
ERROR|Wed, 17 Jul 2013 10:35:47 -0400|visitor|content|/img/logo.png|8.28.19.122|live|404 - Page not found. Visitor came directly to this page and may have typed the URL incorrectly.
INFO|Wed, 17 Jul 2013 10:55:43 -0400|site|favicon|/favicon.ico|174.34.43.253|live|The site favicon could not be found.
INFO|Wed, 17 Jul 2013 10:58:04 -0400|site|favicon|/favicon.ico|174.34.43.253|live|The site favicon could not be found.
INFO|Wed, 17 Jul 2013 10:58:05 -0400|site|favicon|/favicon.ico|174.34.43.253|live|The site favicon could not be found.
INFO|Wed, 17 Jul 2013 10:58:41 -0400|site|favicon|/favicon.ico|174.34.43.253|live|The site favicon could not be found.
ERROR|Wed, 17 Jul 2013 11:02:25 -0400|visitor|content|/img/logo.png|98.169.35.124|live|404 - Page not found. Visitor came directly to this page and may have typed the URL incorrectly.
ERROR|Wed, 17 Jul 2013 11:06:24 -0400|visitor|content|/img/logo.png|98.169.35.124|live|404 - Page not found. Visitor came directly to this page and may have typed the URL incorrectly.
ERROR|Wed, 17 Jul 2013 11:06:55 -0400|visitor|content|/img/logo.png|198.228.228.23|live|404 - Page not found. Visitor came directly to this page and may have typed the URL incorrectly.
ERROR|Wed, 17 Jul 2013 11:07:29 -0400|visitor|content|/img/logo.png|98.169.35.124|live|404 - Page not found. Visitor came directly to this page and may have typed the URL incorrectly.
INFO|Wed, 17 Jul 2013 11:08:57 -0400|site|favicon|/favicon.ico|97.82.169.96|live|The site favicon could not be found.
INFO|Wed, 17 Jul 2013 11:09:00 -0400|site|favicon|/favicon.ico|97.82.169.96|live|The site favicon could not be found.
ERROR|Wed, 17 Jul 2013 11:34:04 -0400|visitor|content|/robots.txt|173.193.205.156|live|404 - Page not found. Visitor came directly to this page and may have typed the URL incorrectly.
ERROR|Wed, 17 Jul 2013 11:34:48 -0400|visitor|content|/blog/FW_TEST|173.193.205.156|live|404 - Page not found. Visitor came directly to this page and may have typed the URL incorrectly.
ERROR|Wed, 17 Jul 2013 11:35:21 -0400|visitor|content|/FW_TEST|173.193.205.156|live|404 - Page not found. Visitor came directly to this page and may have typed the URL incorrectly.
INFO|Wed, 17 Jul 2013 11:47:18 -0400|site|favicon|/favicon.ico|98.169.35.124|live|The site favicon could not be found.
INFO|Wed, 17 Jul 2013 11:47:18 -0400|site|favicon|/favicon.ico|98.169.35.124|live|The site favicon could not be found.
ERROR|Wed, 17 Jul 2013 12:18:29 -0400|visitor|content|/img/logo.png|174.252.114.4|live|404 - Page not found. Visitor came directly to this page and may have typed the URL incorrectly.
INFO|Wed, 17 Jul 2013 12:52:53 -0400|site|favicon|/favicon.ico|98.169.35.124|live|The site favicon could not be found.
INFO|Wed, 17 Jul 2013 12:52:53 -0400|site|favicon|/favicon.ico|98.169.35.124|live|The site favicon could not be found.
INFO|Wed, 17 Jul 2013 12:52:53 -0400|site|favicon|/favicon.ico|98.169.35.124|live|The site favicon could not be found.
INFO|Wed, 17 Jul 2013 12:52:54 -0400|site|favicon|/favicon.ico|98.169.35.124|live|The site favicon could not be found.
INFO|Wed, 17 Jul 2013 12:52:54 -0400|site|favicon|/favicon.ico|98.169.35.124|live|The site favicon could not be found.
INFO|Wed, 17 Jul 2013 12:52:57 -0400|site|favicon|/favicon.ico|98.169.35.124|live|The site favicon could not be found.
INFO|Wed, 17 Jul 2013 12:52:57 -0400|site|favicon|/favicon.ico|98.169.35.124|live|The site favicon could not be found.
INFO|Wed, 17 Jul 2013 12:52:58 -0400|site|favicon|/favicon.ico|98.169.35.124|live|The site favicon could not be found.
INFO|Wed, 17 Jul 2013 12:54:28 -0400|site|favicon|/favicon.ico|69.171.235.117|live|The site favicon could not be found.
INFO|Wed, 17 Jul 2013 12:54:28 -0400|site|favicon|/favicon.ico|69.171.235.115|live|The site favicon could not be found.
INFO|Wed, 17 Jul 2013 12:54:30 -0400|site|favicon|/favicon.ico|69.171.235.115|live|The site favicon could not be found.
INFO|Wed, 17 Jul 2013 12:54:30 -0400|site|favicon|/favicon.ico|69.171.235.115|live|The site favicon could not be found.
INFO|Wed, 17 Jul 2013 12:54:30 -0400|site|favicon|/favicon.ico|69.171.235.115|live|The site favicon could not be found.
INFO|Wed, 17 Jul 2013 12:54:40 -0400|site|favicon|/favicon.ico|98.169.35.124|live|The site favicon could not be found.
INFO|Wed, 17 Jul 2013 12:54:41 -0400|site|favicon|/favicon.ico|98.169.35.124|live|The site favicon could not be found.
INFO|Wed, 17 Jul 2013 12:54:41 -0400|site|favicon|/favicon.ico|98.169.35.124|live|The site favicon could not be found.
INFO|Wed, 17 Jul 2013 13:01:50 -0400|site|favicon|/favicon.ico|216.237.224.38|live|The site favicon could not be found.
ERROR|Wed, 17 Jul 2013 13:43:35 -0400|visitor|content|/img/logo.png|108.18.157.216|live|404 - Page not found. Visitor came directly to this page and may have typed the URL incorrectly.
ERROR|Wed, 17 Jul 2013 13:53:07 -0400|visitor|content|/img/logo.png|8.28.19.122|live|404 - Page not found. Visitor came directly to this page and may have typed the URL incorrectly.
ERROR|Wed, 17 Jul 2013 13:54:10 -0400|visitor|content|/img/logo.png|8.28.19.122|live|404 - Page not found. Visitor came directly to this page and may have typed the URL incorrectly.
INFO|Wed, 17 Jul 2013 14:13:32 -0400|site|favicon|/favicon.ico|72.66.115.20|live|The site favicon could not be found.
ERROR|Wed, 17 Jul 2013 14:34:51 -0400|visitor|content|/img/logo.png|72.196.206.216|live|404 - Page not found. Visitor came directly to this page and may have typed the URL incorrectly.
ERROR|Wed, 17 Jul 2013 14:52:26 -0400|visitor|content|/blog/drink-your-greens+%22Blog+Comments+Powered+by+Disqus%22+spinach&tbs=qdr:y&ct=clnk|198.100.144.228|live|404 - Page not found. Visitor came directly to this page and may have typed the URL incorrectly.
ERROR|Wed, 17 Jul 2013 14:52:28 -0400|visitor|content|/blog/foodies-and-football-fanatics+%22Blog+Comments+Powered+by+Disqus%22+leftovers&tbs=qdr:y&ct=clnk|198.100.144.228|live|404 - Page not found. Visitor came directly to this page and may have typed the URL incorrectly.
ERROR|Wed, 17 Jul 2013 14:52:29 -0400|visitor|content|/blog/drink-your-greens+%22Blog+Comments+Powered+by+Disqus%22+equivalence&tbs=qdr:y&ct=clnk|198.100.144.228|live|404 - Page not found. Visitor came directly to this page and may have typed the URL incorrectly.
ERROR|Wed, 17 Jul 2013 15:00:04 -0400|visitor|content|/apple-touch-icon-114x114-precomposed.png|66.87.72.62|live|404 - Page not found. Visitor came directly to this page and may have typed the URL incorrectly.
ERROR|Wed, 17 Jul 2013 15:00:07 -0400|visitor|content|/apple-touch-icon-114x114.png|66.87.72.62|live|404 - Page not found. Visitor came directly to this page and may have typed the URL incorrectly.
ERROR|Wed, 17 Jul 2013 15:00:09 -0400|visitor|content|/apple-touch-icon-precomposed.png|66.87.72.62|live|404 - Page not found. Visitor came directly to this page and may have typed the URL incorrectly.
ERROR|Wed, 17 Jul 2013 15:00:10 -0400|visitor|content|/apple-touch-icon.png|66.87.72.62|live|404 - Page not found. Visitor came directly to this page and may have typed the URL incorrectly.
ERROR|Wed, 17 Jul 2013 15:21:28 -0400|visitor|content|/FW_TEST|5.10.83.84|live|404 - Page not found. Visitor came directly to this page and may have typed the URL incorrectly.
ERROR|Wed, 17 Jul 2013 15:56:05 -0400|visitor|content|/robots.txt|180.76.5.193|live|404 - Page not found. Visitor came directly to this page and may have typed the URL incorrectly.
ERROR|Wed, 17 Jul 2013 17:15:43 -0400|visitor|content|/img/logo.png|107.198.44.180|live|404 - Page not found. Visitor came directly to this page and may have typed the URL incorrectly.
INFO|Wed, 17 Jul 2013 17:19:48 -0400|site|favicon|/favicon.ico|97.82.169.96|live|The site favicon could not be found.
INFO|Wed, 17 Jul 2013 17:19:49 -0400|site|favicon|/favicon.ico|97.82.169.96|live|The site favicon could not be found.
INFO|Wed, 17 Jul 2013 17:19:49 -0400|site|favicon|/favicon.ico|97.82.169.96|live|The site favicon could not be found.
INFO|Wed, 17 Jul 2013 17:19:49 -0400|site|favicon|/favicon.ico|97.82.169.96|live|The site favicon could not be found.
ERROR|Wed, 17 Jul 2013 17:24:41 -0400|visitor|content|/robots.txt|208.115.111.75|live|404 - Page not found. Visitor came directly to this page and may have typed the URL incorrectly.
ERROR|Wed, 17 Jul 2013 18:28:01 -0400|visitor|content|/img/logo.png|72.70.230.184|live|404 - Page not found. Visitor came directly to this page and may have typed the URL incorrectly.
ERROR|Wed, 17 Jul 2013 18:34:46 -0400|visitor|content|/img/logo.png|66.87.128.112|live|404 - Page not found. Visitor came directly to this page and may have typed the URL incorrectly.
ERROR|Wed, 17 Jul 2013 18:48:56 -0400|visitor|content|/FW_TEST|208.115.111.75|live|404 - Page not found. Visitor came directly to this page and may have typed the URL incorrectly.
ERROR|Wed, 17 Jul 2013 18:57:19 -0400|visitor|content|/img/logo.png|24.127.48.168|live|404 - Page not found. Visitor came directly to this page and may have typed the URL incorrectly.
ERROR|Wed, 17 Jul 2013 19:00:41 -0400|visitor|content|/img/logo.png|24.127.48.168|live|404 - Page not found. Visitor came directly to this page and may have typed the URL incorrectly.
ERROR|Wed, 17 Jul 2013 19:14:09 -0400|visitor|content|/img/logo.png|166.137.88.39|live|404 - Page not found. Visitor came directly to this page and may have typed the URL incorrectly.
ERROR|Wed, 17 Jul 2013 19:14:53 -0400|visitor|content|/img/logo.png|108.84.246.242|live|404 - Page not found. Visitor came directly to this page and may have typed the URL incorrectly.
ERROR|Wed, 17 Jul 2013 19:26:27 -0400|visitor|content|/img/logo.png|97.96.252.163|live|404 - Page not found. Visitor came directly to this page and may have typed the URL incorrectly.
ERROR|Wed, 17 Jul 2013 19:26:27 -0400|visitor|content|/img/logo.png|97.96.252.163|live|404 - Page not found. Visitor came directly to this page and may have typed the URL incorrectly.
ERROR|Wed, 17 Jul 2013 19:26:37 -0400|visitor|content|/robots.txt|208.115.113.91|live|404 - Page not found. Visitor came directly to this page and may have typed the URL incorrectly.
ERROR|Wed, 17 Jul 2013 20:14:48 -0400|visitor|content|/robots.txt|66.249.72.73|live|404 - Page not found. Visitor came directly to this page and may have typed the URL incorrectly.
ERROR|Wed, 17 Jul 2013 20:16:49 -0400|visitor|content|/apple-touch-icon-144x144.png|96.241.184.110|live|404 - Page not found. Visitor came directly to this page and may have typed the URL incorrectly.
ERROR|Wed, 17 Jul 2013 20:16:49 -0400|visitor|content|/apple-touch-icon-precomposed.png|96.241.184.110|live|404 - Page not found. Visitor came directly to this page and may have typed the URL incorrectly.
ERROR|Wed, 17 Jul 2013 20:16:51 -0400|visitor|content|/apple-touch-icon.png|96.241.184.110|live|404 - Page not found. Visitor came directly to this page and may have typed the URL incorrectly.
ERROR|Wed, 17 Jul 2013 21:08:13 -0400|visitor|content|/img/logo.png|72.83.250.15|live|404 - Page not found. Visitor came directly to this page and may have typed the URL incorrectly.
ERROR|Wed, 17 Jul 2013 21:11:25 -0400|visitor|content|/img/logo.png|72.83.250.15|live|404 - Page not found. Visitor came directly to this page and may have typed the URL incorrectly.
ERROR|Wed, 17 Jul 2013 21:11:58 -0400|visitor|content|/img/logo.png|72.83.250.15|live|404 - Page not found. Visitor came directly to this page and may have typed the URL incorrectly.
ERROR|Wed, 17 Jul 2013 21:12:00 -0400|visitor|content|/img/logo.png|72.83.250.15|live|404 - Page not found. Visitor came directly to this page and may have typed the URL incorrectly.
ERROR|Wed, 17 Jul 2013 21:20:22 -0400|visitor|content|/img/logo.png|174.255.35.163|live|404 - Page not found. Visitor came directly to this page and may have typed the URL incorrectly.
ERROR|Wed, 17 Jul 2013 21:24:22 -0400|visitor|content|/blog/FW_TEST|5.10.83.23|live|404 - Page not found. Visitor came directly to this page and may have typed the URL incorrectly.
ERROR|Wed, 17 Jul 2013 21:24:35 -0400|visitor|content|/img/logo.png|71.163.16.181|live|404 - Page not found. Visitor came directly to this page and may have typed the URL incorrectly.
ERROR|Wed, 17 Jul 2013 21:25:51 -0400|visitor|content|/img/logo.png|71.163.16.181|live|404 - Page not found. Visitor came directly to this page and may have typed the URL incorrectly.
ERROR|Wed, 17 Jul 2013 21:26:36 -0400|external|content|/robots.txt|85.25.134.59|live|404 - Page not found. User clicked an outside bad link at <a href="http://netcomber.com">http://netcomber.com</a>.
ERROR|Wed, 17 Jul 2013 21:27:59 -0400|visitor|content|/img/logo.png|72.83.250.15|live|404 - Page not found. Visitor came directly to this page and may have typed the URL incorrectly.
ERROR|Wed, 17 Jul 2013 21:28:10 -0400|visitor|content|/img/logo.png|72.83.250.15|live|404 - Page not found. Visitor came directly to this page and may have typed the URL incorrectly.
ERROR|Wed, 17 Jul 2013 21:29:07 -0400|visitor|content|/img/logo.png|71.163.16.181|live|404 - Page not found. Visitor came directly to this page and may have typed the URL incorrectly.
ERROR|Wed, 17 Jul 2013 21:29:31 -0400|visitor|content|/img/logo.png|71.163.16.181|live|404 - Page not found. Visitor came directly to this page and may have typed the URL incorrectly.
ERROR|Wed, 17 Jul 2013 21:29:31 -0400|visitor|content|/img/logo.png|71.163.16.181|live|404 - Page not found. Visitor came directly to this page and may have typed the URL incorrectly.
ERROR|Wed, 17 Jul 2013 21:29:58 -0400|visitor|content|/img/logo.png|72.83.250.15|live|404 - Page not found. Visitor came directly to this page and may have typed the URL incorrectly.
ERROR|Wed, 17 Jul 2013 22:11:50 -0400|visitor|content|/img/logo.png|66.87.128.112|live|404 - Page not found. Visitor came directly to this page and may have typed the URL incorrectly.
ERROR|Wed, 17 Jul 2013 22:11:57 -0400|visitor|content|/img/logo.png|66.87.128.112|live|404 - Page not found. Visitor came directly to this page and may have typed the URL incorrectly.
ERROR|Wed, 17 Jul 2013 22:12:23 -0400|visitor|content|/img/logo.png|66.87.128.112|live|404 - Page not found. Visitor came directly to this page and may have typed the URL incorrectly.
ERROR|Wed, 17 Jul 2013 22:27:50 -0400|visitor|content|/img/logo.png|174.236.226.46|live|404 - Page not found. Visitor came directly to this page and may have typed the URL incorrectly.
ERROR|Wed, 17 Jul 2013 22:56:48 -0400|visitor|content|/img/logo.png|69.243.20.95|live|404 - Page not found. Visitor came directly to this page and may have typed the URL incorrectly.
ERROR|Wed, 17 Jul 2013 23:22:09 -0400|visitor|content|/img/logo.png|69.243.16.236|live|404 - Page not found. Visitor came directly to this page and may have typed the URL incorrectly.
ERROR|Wed, 17 Jul 2013 23:22:15 -0400|visitor|content|/img/logo.png|69.243.16.236|live|404 - Page not found. Visitor came directly to this page and may have typed the URL incorrectly.
ERROR|Wed, 17 Jul 2013 23:22:21 -0400|visitor|content|/img/logo.png|69.243.16.236|live|404 - Page not found. Visitor came directly to this page and may have typed the URL incorrectly.
