ERROR|Fri, 20 Sep 2013 00:09:51 -0400|visitor|content|/img/logo.png|68.100.62.42|live|404 - Page not found. Visitor came directly to this page and may have typed the URL incorrectly.
ERROR|Fri, 20 Sep 2013 00:12:38 -0400|visitor|content|/img/logo.png|71.38.157.148|live|404 - Page not found. Visitor came directly to this page and may have typed the URL incorrectly.
ERROR|Fri, 20 Sep 2013 02:25:05 -0400|visitor|content|/robots.txt|66.249.74.71|live|404 - Page not found. Visitor came directly to this page and may have typed the URL incorrectly.
ERROR|Fri, 20 Sep 2013 02:26:42 -0400|visitor|content|/robots.txt|37.140.141.16|live|404 - Page not found. Visitor came directly to this page and may have typed the URL incorrectly.
ERROR|Fri, 20 Sep 2013 03:40:59 -0400|visitor|content|/robots.txt|108.59.8.70|live|404 - Page not found. Visitor came directly to this page and may have typed the URL incorrectly.
ERROR|Fri, 20 Sep 2013 03:41:01 -0400|visitor|content|/FW_TEST|108.59.8.70|live|404 - Page not found. Visitor came directly to this page and may have typed the URL incorrectly.
ERROR|Fri, 20 Sep 2013 07:39:48 -0400|visitor|content|/img/logo.png|70.208.140.163|live|404 - Page not found. Visitor came directly to this page and may have typed the URL incorrectly.
ERROR|Fri, 20 Sep 2013 08:10:46 -0400|visitor|content|/robots.txt|66.249.73.109|live|404 - Page not found. Visitor came directly to this page and may have typed the URL incorrectly.
ERROR|Fri, 20 Sep 2013 08:25:56 -0400|visitor|content|/img/logo.png|24.170.246.140|live|404 - Page not found. Visitor came directly to this page and may have typed the URL incorrectly.
ERROR|Fri, 20 Sep 2013 08:29:39 -0400|visitor|content|/img/logo.png|68.100.62.42|live|404 - Page not found. Visitor came directly to this page and may have typed the URL incorrectly.
ERROR|Fri, 20 Sep 2013 08:29:45 -0400|visitor|content|/img/logo.png|68.100.62.42|live|404 - Page not found. Visitor came directly to this page and may have typed the URL incorrectly.
ERROR|Fri, 20 Sep 2013 08:29:47 -0400|visitor|content|/img/logo.png|68.100.62.42|live|404 - Page not found. Visitor came directly to this page and may have typed the URL incorrectly.
ERROR|Fri, 20 Sep 2013 08:29:51 -0400|visitor|content|/img/logo.png|68.100.62.42|live|404 - Page not found. Visitor came directly to this page and may have typed the URL incorrectly.
ERROR|Fri, 20 Sep 2013 08:29:55 -0400|visitor|content|/img/logo.png|68.100.62.42|live|404 - Page not found. Visitor came directly to this page and may have typed the URL incorrectly.
ERROR|Fri, 20 Sep 2013 08:29:57 -0400|visitor|content|/img/logo.png|68.100.62.42|live|404 - Page not found. Visitor came directly to this page and may have typed the URL incorrectly.
ERROR|Fri, 20 Sep 2013 08:30:07 -0400|visitor|content|/img/logo.png|68.100.62.42|live|404 - Page not found. Visitor came directly to this page and may have typed the URL incorrectly.
ERROR|Fri, 20 Sep 2013 08:30:33 -0400|visitor|content|/img/logo.png|68.100.62.42|live|404 - Page not found. Visitor came directly to this page and may have typed the URL incorrectly.
ERROR|Fri, 20 Sep 2013 08:30:53 -0400|visitor|content|/img/logo.png|68.100.62.42|live|404 - Page not found. Visitor came directly to this page and may have typed the URL incorrectly.
ERROR|Fri, 20 Sep 2013 08:30:53 -0400|visitor|content|/img/logo.png|68.100.62.42|live|404 - Page not found. Visitor came directly to this page and may have typed the URL incorrectly.
ERROR|Fri, 20 Sep 2013 08:31:04 -0400|visitor|content|/img/logo.png|68.100.62.42|live|404 - Page not found. Visitor came directly to this page and may have typed the URL incorrectly.
ERROR|Fri, 20 Sep 2013 08:32:11 -0400|visitor|content|/img/logo.png|68.100.62.42|live|404 - Page not found. Visitor came directly to this page and may have typed the URL incorrectly.
ERROR|Fri, 20 Sep 2013 08:32:12 -0400|visitor|content|/img/logo.png|68.100.62.42|live|404 - Page not found. Visitor came directly to this page and may have typed the URL incorrectly.
ERROR|Fri, 20 Sep 2013 08:32:33 -0400|visitor|content|/img/logo.png|209.0.140.11|live|404 - Page not found. Visitor came directly to this page and may have typed the URL incorrectly.
ERROR|Fri, 20 Sep 2013 08:33:19 -0400|visitor|content|/img/logo.png|68.100.62.42|live|404 - Page not found. Visitor came directly to this page and may have typed the URL incorrectly.
ERROR|Fri, 20 Sep 2013 08:34:17 -0400|visitor|content|/img/logo.png|68.100.62.42|live|404 - Page not found. Visitor came directly to this page and may have typed the URL incorrectly.
ERROR|Fri, 20 Sep 2013 08:34:17 -0400|visitor|content|/img/logo.png|68.100.62.42|live|404 - Page not found. Visitor came directly to this page and may have typed the URL incorrectly.
ERROR|Fri, 20 Sep 2013 08:34:32 -0400|visitor|content|/img/logo.png|68.100.62.42|live|404 - Page not found. Visitor came directly to this page and may have typed the URL incorrectly.
ERROR|Fri, 20 Sep 2013 08:36:04 -0400|visitor|content|/img/logo.png|166.137.88.18|live|404 - Page not found. Visitor came directly to this page and may have typed the URL incorrectly.
ERROR|Fri, 20 Sep 2013 08:37:33 -0400|visitor|content|/img/logo.png|68.100.62.42|live|404 - Page not found. Visitor came directly to this page and may have typed the URL incorrectly.
ERROR|Fri, 20 Sep 2013 08:37:33 -0400|visitor|content|/img/logo.png|68.100.62.42|live|404 - Page not found. Visitor came directly to this page and may have typed the URL incorrectly.
ERROR|Fri, 20 Sep 2013 08:38:51 -0400|visitor|content|/img/logo.png|68.100.62.42|live|404 - Page not found. Visitor came directly to this page and may have typed the URL incorrectly.
ERROR|Fri, 20 Sep 2013 08:38:53 -0400|visitor|content|/img/logo.png|68.100.62.42|live|404 - Page not found. Visitor came directly to this page and may have typed the URL incorrectly.
ERROR|Fri, 20 Sep 2013 08:38:59 -0400|visitor|content|/img/logo.png|68.100.62.42|live|404 - Page not found. Visitor came directly to this page and may have typed the URL incorrectly.
ERROR|Fri, 20 Sep 2013 08:39:01 -0400|visitor|content|/img/logo.png|68.100.62.42|live|404 - Page not found. Visitor came directly to this page and may have typed the URL incorrectly.
ERROR|Fri, 20 Sep 2013 08:39:02 -0400|visitor|content|/img/logo.png|68.100.62.42|live|404 - Page not found. Visitor came directly to this page and may have typed the URL incorrectly.
ERROR|Fri, 20 Sep 2013 08:39:03 -0400|visitor|content|/img/logo.png|68.100.62.42|live|404 - Page not found. Visitor came directly to this page and may have typed the URL incorrectly.
ERROR|Fri, 20 Sep 2013 08:39:20 -0400|visitor|content|/img/logo.png|68.100.62.42|live|404 - Page not found. Visitor came directly to this page and may have typed the URL incorrectly.
ERROR|Fri, 20 Sep 2013 08:39:38 -0400|visitor|content|/img/logo.png|68.100.62.42|live|404 - Page not found. Visitor came directly to this page and may have typed the URL incorrectly.
ERROR|Fri, 20 Sep 2013 08:39:54 -0400|visitor|content|/img/logo.png|68.100.62.42|live|404 - Page not found. Visitor came directly to this page and may have typed the URL incorrectly.
ERROR|Fri, 20 Sep 2013 08:40:02 -0400|visitor|content|/img/logo.png|68.100.62.42|live|404 - Page not found. Visitor came directly to this page and may have typed the URL incorrectly.
ERROR|Fri, 20 Sep 2013 08:40:10 -0400|visitor|content|/img/logo.png|68.100.62.42|live|404 - Page not found. Visitor came directly to this page and may have typed the URL incorrectly.
ERROR|Fri, 20 Sep 2013 08:40:24 -0400|visitor|content|/img/logo.png|68.100.62.42|live|404 - Page not found. Visitor came directly to this page and may have typed the URL incorrectly.
ERROR|Fri, 20 Sep 2013 08:40:33 -0400|visitor|content|/img/logo.png|68.100.62.42|live|404 - Page not found. Visitor came directly to this page and may have typed the URL incorrectly.
ERROR|Fri, 20 Sep 2013 08:40:37 -0400|visitor|content|/img/logo.png|68.100.62.42|live|404 - Page not found. Visitor came directly to this page and may have typed the URL incorrectly.
ERROR|Fri, 20 Sep 2013 08:40:58 -0400|visitor|content|/img/logo.png|68.100.62.42|live|404 - Page not found. Visitor came directly to this page and may have typed the URL incorrectly.
ERROR|Fri, 20 Sep 2013 08:41:02 -0400|visitor|content|/img/logo.png|68.100.62.42|live|404 - Page not found. Visitor came directly to this page and may have typed the URL incorrectly.
ERROR|Fri, 20 Sep 2013 08:41:19 -0400|visitor|content|/img/logo.png|68.100.62.42|live|404 - Page not found. Visitor came directly to this page and may have typed the URL incorrectly.
ERROR|Fri, 20 Sep 2013 08:41:22 -0400|visitor|content|/img/logo.png|68.100.62.42|live|404 - Page not found. Visitor came directly to this page and may have typed the URL incorrectly.
ERROR|Fri, 20 Sep 2013 08:41:31 -0400|visitor|content|/img/logo.png|68.100.62.42|live|404 - Page not found. Visitor came directly to this page and may have typed the URL incorrectly.
ERROR|Fri, 20 Sep 2013 08:41:40 -0400|visitor|content|/img/logo.png|68.100.62.42|live|404 - Page not found. Visitor came directly to this page and may have typed the URL incorrectly.
ERROR|Fri, 20 Sep 2013 08:42:02 -0400|visitor|content|/img/logo.png|68.100.62.42|live|404 - Page not found. Visitor came directly to this page and may have typed the URL incorrectly.
ERROR|Fri, 20 Sep 2013 08:42:03 -0400|visitor|content|/img/logo.png|68.100.62.42|live|404 - Page not found. Visitor came directly to this page and may have typed the URL incorrectly.
ERROR|Fri, 20 Sep 2013 08:42:18 -0400|visitor|content|/img/logo.png|68.100.62.42|live|404 - Page not found. Visitor came directly to this page and may have typed the URL incorrectly.
ERROR|Fri, 20 Sep 2013 08:42:32 -0400|visitor|content|/img/logo.png|68.100.62.42|live|404 - Page not found. Visitor came directly to this page and may have typed the URL incorrectly.
ERROR|Fri, 20 Sep 2013 08:43:02 -0400|visitor|content|/img/logo.png|68.100.62.42|live|404 - Page not found. Visitor came directly to this page and may have typed the URL incorrectly.
ERROR|Fri, 20 Sep 2013 08:43:03 -0400|visitor|content|/img/logo.png|68.100.62.42|live|404 - Page not found. Visitor came directly to this page and may have typed the URL incorrectly.
ERROR|Fri, 20 Sep 2013 08:43:12 -0400|visitor|content|/img/logo.png|68.100.62.42|live|404 - Page not found. Visitor came directly to this page and may have typed the URL incorrectly.
ERROR|Fri, 20 Sep 2013 08:43:33 -0400|visitor|content|/img/logo.png|68.100.62.42|live|404 - Page not found. Visitor came directly to this page and may have typed the URL incorrectly.
ERROR|Fri, 20 Sep 2013 08:43:38 -0400|visitor|content|/img/logo.png|68.100.62.42|live|404 - Page not found. Visitor came directly to this page and may have typed the URL incorrectly.
ERROR|Fri, 20 Sep 2013 08:44:02 -0400|visitor|content|/img/logo.png|68.100.62.42|live|404 - Page not found. Visitor came directly to this page and may have typed the URL incorrectly.
ERROR|Fri, 20 Sep 2013 08:44:06 -0400|visitor|content|/img/logo.png|68.100.62.42|live|404 - Page not found. Visitor came directly to this page and may have typed the URL incorrectly.
ERROR|Fri, 20 Sep 2013 08:44:18 -0400|visitor|content|/img/logo.png|68.100.62.42|live|404 - Page not found. Visitor came directly to this page and may have typed the URL incorrectly.
ERROR|Fri, 20 Sep 2013 08:44:37 -0400|visitor|content|/img/logo.png|68.100.62.42|live|404 - Page not found. Visitor came directly to this page and may have typed the URL incorrectly.
ERROR|Fri, 20 Sep 2013 08:44:58 -0400|visitor|content|/img/logo.png|68.100.62.42|live|404 - Page not found. Visitor came directly to this page and may have typed the URL incorrectly.
ERROR|Fri, 20 Sep 2013 08:45:02 -0400|visitor|content|/img/logo.png|68.100.62.42|live|404 - Page not found. Visitor came directly to this page and may have typed the URL incorrectly.
ERROR|Fri, 20 Sep 2013 08:45:03 -0400|visitor|content|/img/logo.png|68.100.62.42|live|404 - Page not found. Visitor came directly to this page and may have typed the URL incorrectly.
ERROR|Fri, 20 Sep 2013 08:45:08 -0400|visitor|content|/img/logo.png|68.100.62.42|live|404 - Page not found. Visitor came directly to this page and may have typed the URL incorrectly.
ERROR|Fri, 20 Sep 2013 08:45:23 -0400|visitor|content|/img/logo.png|68.100.62.42|live|404 - Page not found. Visitor came directly to this page and may have typed the URL incorrectly.
ERROR|Fri, 20 Sep 2013 08:45:31 -0400|visitor|content|/img/logo.png|68.100.62.42|live|404 - Page not found. Visitor came directly to this page and may have typed the URL incorrectly.
ERROR|Fri, 20 Sep 2013 08:46:02 -0400|visitor|content|/img/logo.png|68.100.62.42|live|404 - Page not found. Visitor came directly to this page and may have typed the URL incorrectly.
ERROR|Fri, 20 Sep 2013 08:46:11 -0400|visitor|content|/img/logo.png|68.100.62.42|live|404 - Page not found. Visitor came directly to this page and may have typed the URL incorrectly.
ERROR|Fri, 20 Sep 2013 08:46:42 -0400|visitor|content|/img/logo.png|68.100.62.42|live|404 - Page not found. Visitor came directly to this page and may have typed the URL incorrectly.
ERROR|Fri, 20 Sep 2013 08:47:06 -0400|visitor|content|/img/logo.png|68.100.62.42|live|404 - Page not found. Visitor came directly to this page and may have typed the URL incorrectly.
ERROR|Fri, 20 Sep 2013 08:47:50 -0400|visitor|content|/img/logo.png|68.100.62.42|live|404 - Page not found. Visitor came directly to this page and may have typed the URL incorrectly.
ERROR|Fri, 20 Sep 2013 08:47:50 -0400|visitor|content|/img/logo.png|68.100.62.42|live|404 - Page not found. Visitor came directly to this page and may have typed the URL incorrectly.
ERROR|Fri, 20 Sep 2013 08:47:51 -0400|visitor|content|/img/logo.png|68.100.62.42|live|404 - Page not found. Visitor came directly to this page and may have typed the URL incorrectly.
ERROR|Fri, 20 Sep 2013 08:47:52 -0400|visitor|content|/img/logo.png|68.100.62.42|live|404 - Page not found. Visitor came directly to this page and may have typed the URL incorrectly.
ERROR|Fri, 20 Sep 2013 08:47:59 -0400|visitor|content|/img/logo.png|68.100.62.42|live|404 - Page not found. Visitor came directly to this page and may have typed the URL incorrectly.
ERROR|Fri, 20 Sep 2013 08:48:00 -0400|visitor|content|/img/logo.png|68.100.62.42|live|404 - Page not found. Visitor came directly to this page and may have typed the URL incorrectly.
ERROR|Fri, 20 Sep 2013 08:48:04 -0400|visitor|content|/img/logo.png|68.100.62.42|live|404 - Page not found. Visitor came directly to this page and may have typed the URL incorrectly.
ERROR|Fri, 20 Sep 2013 08:48:15 -0400|visitor|content|/img/logo.png|68.100.62.42|live|404 - Page not found. Visitor came directly to this page and may have typed the URL incorrectly.
ERROR|Fri, 20 Sep 2013 08:48:23 -0400|visitor|content|/img/logo.png|68.100.62.42|live|404 - Page not found. Visitor came directly to this page and may have typed the URL incorrectly.
ERROR|Fri, 20 Sep 2013 08:48:34 -0400|visitor|content|/img/logo.png|68.100.62.42|live|404 - Page not found. Visitor came directly to this page and may have typed the URL incorrectly.
ERROR|Fri, 20 Sep 2013 08:49:06 -0400|visitor|content|/img/logo.png|68.100.62.42|live|404 - Page not found. Visitor came directly to this page and may have typed the URL incorrectly.
ERROR|Fri, 20 Sep 2013 08:49:15 -0400|visitor|content|/img/logo.png|68.100.62.42|live|404 - Page not found. Visitor came directly to this page and may have typed the URL incorrectly.
ERROR|Fri, 20 Sep 2013 08:51:54 -0400|visitor|content|/img/logo.png|68.100.62.42|live|404 - Page not found. Visitor came directly to this page and may have typed the URL incorrectly.
ERROR|Fri, 20 Sep 2013 08:51:56 -0400|visitor|content|/img/logo.png|68.100.62.42|live|404 - Page not found. Visitor came directly to this page and may have typed the URL incorrectly.
ERROR|Fri, 20 Sep 2013 08:52:04 -0400|visitor|content|/img/logo.png|68.100.62.42|live|404 - Page not found. Visitor came directly to this page and may have typed the URL incorrectly.
ERROR|Fri, 20 Sep 2013 08:52:07 -0400|visitor|content|/img/logo.png|68.100.62.42|live|404 - Page not found. Visitor came directly to this page and may have typed the URL incorrectly.
ERROR|Fri, 20 Sep 2013 08:52:11 -0400|visitor|content|/img/logo.png|68.100.62.42|live|404 - Page not found. Visitor came directly to this page and may have typed the URL incorrectly.
ERROR|Fri, 20 Sep 2013 08:52:16 -0400|visitor|content|/img/logo.png|68.100.62.42|live|404 - Page not found. Visitor came directly to this page and may have typed the URL incorrectly.
ERROR|Fri, 20 Sep 2013 08:52:26 -0400|visitor|content|/img/logo.png|68.100.62.42|live|404 - Page not found. Visitor came directly to this page and may have typed the URL incorrectly.
ERROR|Fri, 20 Sep 2013 08:52:28 -0400|visitor|content|/img/logo.png|68.100.62.42|live|404 - Page not found. Visitor came directly to this page and may have typed the URL incorrectly.
ERROR|Fri, 20 Sep 2013 08:55:07 -0400|visitor|content|/img/logo.png|68.100.62.42|live|404 - Page not found. Visitor came directly to this page and may have typed the URL incorrectly.
ERROR|Fri, 20 Sep 2013 09:06:47 -0400|visitor|content|/img/logo.png|96.255.195.254|live|404 - Page not found. Visitor came directly to this page and may have typed the URL incorrectly.
ERROR|Fri, 20 Sep 2013 09:06:57 -0400|visitor|content|/img/logo.png|96.255.195.254|live|404 - Page not found. Visitor came directly to this page and may have typed the URL incorrectly.
ERROR|Fri, 20 Sep 2013 09:17:42 -0400|visitor|content|/img/logo.png|12.187.22.201|live|404 - Page not found. Visitor came directly to this page and may have typed the URL incorrectly.
ERROR|Fri, 20 Sep 2013 09:19:48 -0400|visitor|content|/img/logo.png|68.100.62.42|live|404 - Page not found. Visitor came directly to this page and may have typed the URL incorrectly.
ERROR|Fri, 20 Sep 2013 09:19:51 -0400|visitor|content|/img/logo.png|68.100.62.42|live|404 - Page not found. Visitor came directly to this page and may have typed the URL incorrectly.
ERROR|Fri, 20 Sep 2013 09:20:19 -0400|visitor|content|/img/logo.png|68.100.62.42|live|404 - Page not found. Visitor came directly to this page and may have typed the URL incorrectly.
ERROR|Fri, 20 Sep 2013 09:20:19 -0400|visitor|content|/img/logo.png|68.100.62.42|live|404 - Page not found. Visitor came directly to this page and may have typed the URL incorrectly.
ERROR|Fri, 20 Sep 2013 09:27:06 -0400|visitor|content|/robots.txt|208.115.111.75|live|404 - Page not found. Visitor came directly to this page and may have typed the URL incorrectly.
ERROR|Fri, 20 Sep 2013 09:28:10 -0400|visitor|content|/img/logo.png|68.100.62.42|live|404 - Page not found. Visitor came directly to this page and may have typed the URL incorrectly.
ERROR|Fri, 20 Sep 2013 09:28:22 -0400|visitor|content|/img/logo.png|68.100.62.42|live|404 - Page not found. Visitor came directly to this page and may have typed the URL incorrectly.
ERROR|Fri, 20 Sep 2013 09:38:50 -0400|visitor|content|/img/logo.png|69.52.69.52|live|404 - Page not found. Visitor came directly to this page and may have typed the URL incorrectly.
ERROR|Fri, 20 Sep 2013 10:04:22 -0400|external|content|/img/logo.png|70.182.188.56|live|404 - Page not found. User clicked an outside bad link at <a href="http://us-mg5.mail.yahoo.com/neo/launch?.rand=27v66ab4g3evs">http://us-mg5.mail.yahoo.com/neo/launch?.rand=27v66ab4g3evs</a>.
ERROR|Fri, 20 Sep 2013 10:17:22 -0400|visitor|content|/img/logo.png|208.54.35.238|live|404 - Page not found. Visitor came directly to this page and may have typed the URL incorrectly.
ERROR|Fri, 20 Sep 2013 10:17:40 -0400|visitor|content|/img/logo.png|208.54.35.238|live|404 - Page not found. Visitor came directly to this page and may have typed the URL incorrectly.
ERROR|Fri, 20 Sep 2013 10:19:53 -0400|visitor|content|/img/logo.png|68.100.62.42|live|404 - Page not found. Visitor came directly to this page and may have typed the URL incorrectly.
ERROR|Fri, 20 Sep 2013 10:19:54 -0400|visitor|content|/img/logo.png|68.100.62.42|live|404 - Page not found. Visitor came directly to this page and may have typed the URL incorrectly.
ERROR|Fri, 20 Sep 2013 10:20:12 -0400|visitor|content|/img/logo.png|68.100.62.42|live|404 - Page not found. Visitor came directly to this page and may have typed the URL incorrectly.
ERROR|Fri, 20 Sep 2013 10:20:38 -0400|visitor|content|/img/logo.png|68.100.62.42|live|404 - Page not found. Visitor came directly to this page and may have typed the URL incorrectly.
ERROR|Fri, 20 Sep 2013 10:20:45 -0400|visitor|content|/img/logo.png|68.100.62.42|live|404 - Page not found. Visitor came directly to this page and may have typed the URL incorrectly.
ERROR|Fri, 20 Sep 2013 10:20:54 -0400|visitor|content|/img/logo.png|68.100.62.42|live|404 - Page not found. Visitor came directly to this page and may have typed the URL incorrectly.
ERROR|Fri, 20 Sep 2013 10:21:55 -0400|visitor|content|/img/logo.png|68.100.62.42|live|404 - Page not found. Visitor came directly to this page and may have typed the URL incorrectly.
ERROR|Fri, 20 Sep 2013 10:22:14 -0400|visitor|content|/img/logo.png|68.100.62.42|live|404 - Page not found. Visitor came directly to this page and may have typed the URL incorrectly.
ERROR|Fri, 20 Sep 2013 10:22:44 -0400|visitor|content|/img/logo.png|68.100.62.42|live|404 - Page not found. Visitor came directly to this page and may have typed the URL incorrectly.
ERROR|Fri, 20 Sep 2013 10:22:54 -0400|visitor|content|/img/logo.png|68.100.62.42|live|404 - Page not found. Visitor came directly to this page and may have typed the URL incorrectly.
ERROR|Fri, 20 Sep 2013 10:22:56 -0400|visitor|content|/img/logo.png|68.100.62.42|live|404 - Page not found. Visitor came directly to this page and may have typed the URL incorrectly.
ERROR|Fri, 20 Sep 2013 10:23:00 -0400|visitor|content|/img/logo.png|68.100.62.42|live|404 - Page not found. Visitor came directly to this page and may have typed the URL incorrectly.
ERROR|Fri, 20 Sep 2013 10:23:28 -0400|visitor|content|/img/logo.png|68.100.62.42|live|404 - Page not found. Visitor came directly to this page and may have typed the URL incorrectly.
ERROR|Fri, 20 Sep 2013 10:23:47 -0400|visitor|content|/img/logo.png|68.100.62.42|live|404 - Page not found. Visitor came directly to this page and may have typed the URL incorrectly.
ERROR|Fri, 20 Sep 2013 10:23:54 -0400|visitor|content|/img/logo.png|68.100.62.42|live|404 - Page not found. Visitor came directly to this page and may have typed the URL incorrectly.
ERROR|Fri, 20 Sep 2013 10:24:06 -0400|visitor|content|/img/logo.png|69.52.69.52|live|404 - Page not found. Visitor came directly to this page and may have typed the URL incorrectly.
ERROR|Fri, 20 Sep 2013 10:24:13 -0400|visitor|content|/img/logo.png|68.100.62.42|live|404 - Page not found. Visitor came directly to this page and may have typed the URL incorrectly.
ERROR|Fri, 20 Sep 2013 10:24:40 -0400|visitor|content|/img/logo.png|68.100.62.42|live|404 - Page not found. Visitor came directly to this page and may have typed the URL incorrectly.
ERROR|Fri, 20 Sep 2013 10:24:51 -0400|visitor|content|/img/logo.png|68.100.62.42|live|404 - Page not found. Visitor came directly to this page and may have typed the URL incorrectly.
ERROR|Fri, 20 Sep 2013 10:24:54 -0400|visitor|content|/img/logo.png|68.100.62.42|live|404 - Page not found. Visitor came directly to this page and may have typed the URL incorrectly.
ERROR|Fri, 20 Sep 2013 10:25:03 -0400|visitor|content|/img/logo.png|68.100.62.42|live|404 - Page not found. Visitor came directly to this page and may have typed the URL incorrectly.
ERROR|Fri, 20 Sep 2013 10:25:06 -0400|visitor|content|/img/logo.png|68.100.62.42|live|404 - Page not found. Visitor came directly to this page and may have typed the URL incorrectly.
ERROR|Fri, 20 Sep 2013 10:25:12 -0400|visitor|content|/img/logo.png|68.100.62.42|live|404 - Page not found. Visitor came directly to this page and may have typed the URL incorrectly.
ERROR|Fri, 20 Sep 2013 10:25:17 -0400|visitor|content|/img/logo.png|68.100.62.42|live|404 - Page not found. Visitor came directly to this page and may have typed the URL incorrectly.
ERROR|Fri, 20 Sep 2013 10:25:33 -0400|visitor|content|/img/logo.png|68.100.62.42|live|404 - Page not found. Visitor came directly to this page and may have typed the URL incorrectly.
ERROR|Fri, 20 Sep 2013 10:25:36 -0400|visitor|content|/img/logo.png|68.100.62.42|live|404 - Page not found. Visitor came directly to this page and may have typed the URL incorrectly.
ERROR|Fri, 20 Sep 2013 10:25:54 -0400|visitor|content|/img/logo.png|68.100.62.42|live|404 - Page not found. Visitor came directly to this page and may have typed the URL incorrectly.
ERROR|Fri, 20 Sep 2013 10:25:55 -0400|visitor|content|/img/logo.png|68.100.62.42|live|404 - Page not found. Visitor came directly to this page and may have typed the URL incorrectly.
ERROR|Fri, 20 Sep 2013 10:26:01 -0400|visitor|content|/img/logo.png|68.100.62.42|live|404 - Page not found. Visitor came directly to this page and may have typed the URL incorrectly.
ERROR|Fri, 20 Sep 2013 10:26:20 -0400|visitor|content|/img/logo.png|68.100.62.42|live|404 - Page not found. Visitor came directly to this page and may have typed the URL incorrectly.
ERROR|Fri, 20 Sep 2013 10:26:25 -0400|visitor|content|/img/logo.png|68.100.62.42|live|404 - Page not found. Visitor came directly to this page and may have typed the URL incorrectly.
ERROR|Fri, 20 Sep 2013 10:26:39 -0400|visitor|content|/img/logo.png|68.100.62.42|live|404 - Page not found. Visitor came directly to this page and may have typed the URL incorrectly.
ERROR|Fri, 20 Sep 2013 10:26:41 -0400|visitor|content|/img/logo.png|68.100.62.42|live|404 - Page not found. Visitor came directly to this page and may have typed the URL incorrectly.
ERROR|Fri, 20 Sep 2013 10:26:48 -0400|visitor|content|/img/logo.png|68.100.62.42|live|404 - Page not found. Visitor came directly to this page and may have typed the URL incorrectly.
ERROR|Fri, 20 Sep 2013 10:26:54 -0400|visitor|content|/img/logo.png|68.100.62.42|live|404 - Page not found. Visitor came directly to this page and may have typed the URL incorrectly.
ERROR|Fri, 20 Sep 2013 10:26:58 -0400|visitor|content|/img/logo.png|68.100.62.42|live|404 - Page not found. Visitor came directly to this page and may have typed the URL incorrectly.
ERROR|Fri, 20 Sep 2013 10:27:10 -0400|visitor|content|/img/logo.png|68.100.62.42|live|404 - Page not found. Visitor came directly to this page and may have typed the URL incorrectly.
ERROR|Fri, 20 Sep 2013 10:27:18 -0400|visitor|content|/img/logo.png|68.100.62.42|live|404 - Page not found. Visitor came directly to this page and may have typed the URL incorrectly.
ERROR|Fri, 20 Sep 2013 10:27:36 -0400|visitor|content|/img/logo.png|68.100.62.42|live|404 - Page not found. Visitor came directly to this page and may have typed the URL incorrectly.
ERROR|Fri, 20 Sep 2013 10:27:52 -0400|visitor|content|/img/logo.png|68.100.62.42|live|404 - Page not found. Visitor came directly to this page and may have typed the URL incorrectly.
ERROR|Fri, 20 Sep 2013 10:27:54 -0400|visitor|content|/img/logo.png|68.100.62.42|live|404 - Page not found. Visitor came directly to this page and may have typed the URL incorrectly.
ERROR|Fri, 20 Sep 2013 10:27:58 -0400|visitor|content|/img/logo.png|68.100.62.42|live|404 - Page not found. Visitor came directly to this page and may have typed the URL incorrectly.
ERROR|Fri, 20 Sep 2013 10:28:10 -0400|visitor|content|/img/logo.png|68.100.62.42|live|404 - Page not found. Visitor came directly to this page and may have typed the URL incorrectly.
ERROR|Fri, 20 Sep 2013 10:28:23 -0400|visitor|content|/img/logo.png|68.100.62.42|live|404 - Page not found. Visitor came directly to this page and may have typed the URL incorrectly.
ERROR|Fri, 20 Sep 2013 10:28:46 -0400|visitor|content|/img/logo.png|68.100.62.42|live|404 - Page not found. Visitor came directly to this page and may have typed the URL incorrectly.
ERROR|Fri, 20 Sep 2013 10:28:55 -0400|visitor|content|/img/logo.png|68.100.62.42|live|404 - Page not found. Visitor came directly to this page and may have typed the URL incorrectly.
ERROR|Fri, 20 Sep 2013 10:29:00 -0400|visitor|content|/img/logo.png|68.100.62.42|live|404 - Page not found. Visitor came directly to this page and may have typed the URL incorrectly.
ERROR|Fri, 20 Sep 2013 10:29:21 -0400|visitor|content|/img/logo.png|68.100.62.42|live|404 - Page not found. Visitor came directly to this page and may have typed the URL incorrectly.
ERROR|Fri, 20 Sep 2013 10:29:42 -0400|visitor|content|/img/logo.png|68.100.62.42|live|404 - Page not found. Visitor came directly to this page and may have typed the URL incorrectly.
ERROR|Fri, 20 Sep 2013 10:29:50 -0400|visitor|content|/img/logo.png|68.100.62.42|live|404 - Page not found. Visitor came directly to this page and may have typed the URL incorrectly.
ERROR|Fri, 20 Sep 2013 10:29:55 -0400|visitor|content|/img/logo.png|68.100.62.42|live|404 - Page not found. Visitor came directly to this page and may have typed the URL incorrectly.
ERROR|Fri, 20 Sep 2013 10:30:13 -0400|visitor|content|/img/logo.png|68.100.62.42|live|404 - Page not found. Visitor came directly to this page and may have typed the URL incorrectly.
ERROR|Fri, 20 Sep 2013 10:30:20 -0400|visitor|content|/img/logo.png|68.100.62.42|live|404 - Page not found. Visitor came directly to this page and may have typed the URL incorrectly.
ERROR|Fri, 20 Sep 2013 10:30:32 -0400|visitor|content|/img/logo.png|68.100.62.42|live|404 - Page not found. Visitor came directly to this page and may have typed the URL incorrectly.
ERROR|Fri, 20 Sep 2013 10:30:55 -0400|visitor|content|/img/logo.png|68.100.62.42|live|404 - Page not found. Visitor came directly to this page and may have typed the URL incorrectly.
ERROR|Fri, 20 Sep 2013 10:31:00 -0400|visitor|content|/img/logo.png|68.100.62.42|live|404 - Page not found. Visitor came directly to this page and may have typed the URL incorrectly.
ERROR|Fri, 20 Sep 2013 10:31:36 -0400|visitor|content|/img/logo.png|68.100.62.42|live|404 - Page not found. Visitor came directly to this page and may have typed the URL incorrectly.
ERROR|Fri, 20 Sep 2013 10:31:49 -0400|visitor|content|/img/logo.png|68.100.62.42|live|404 - Page not found. Visitor came directly to this page and may have typed the URL incorrectly.
ERROR|Fri, 20 Sep 2013 10:31:55 -0400|visitor|content|/img/logo.png|68.100.62.42|live|404 - Page not found. Visitor came directly to this page and may have typed the URL incorrectly.
ERROR|Fri, 20 Sep 2013 10:32:05 -0400|visitor|content|/img/logo.png|68.100.62.42|live|404 - Page not found. Visitor came directly to this page and may have typed the URL incorrectly.
ERROR|Fri, 20 Sep 2013 10:32:40 -0400|visitor|content|/img/logo.png|68.100.62.42|live|404 - Page not found. Visitor came directly to this page and may have typed the URL incorrectly.
ERROR|Fri, 20 Sep 2013 10:32:55 -0400|visitor|content|/img/logo.png|68.100.62.42|live|404 - Page not found. Visitor came directly to this page and may have typed the URL incorrectly.
ERROR|Fri, 20 Sep 2013 10:32:58 -0400|visitor|content|/img/logo.png|68.100.62.42|live|404 - Page not found. Visitor came directly to this page and may have typed the URL incorrectly.
ERROR|Fri, 20 Sep 2013 10:33:16 -0400|visitor|content|/img/logo.png|68.100.62.42|live|404 - Page not found. Visitor came directly to this page and may have typed the URL incorrectly.
ERROR|Fri, 20 Sep 2013 10:33:21 -0400|visitor|content|/img/logo.png|68.100.62.42|live|404 - Page not found. Visitor came directly to this page and may have typed the URL incorrectly.
ERROR|Fri, 20 Sep 2013 10:33:24 -0400|visitor|content|/img/logo.png|68.100.62.42|live|404 - Page not found. Visitor came directly to this page and may have typed the URL incorrectly.
ERROR|Fri, 20 Sep 2013 10:33:29 -0400|visitor|content|/img/logo.png|68.100.62.42|live|404 - Page not found. Visitor came directly to this page and may have typed the URL incorrectly.
ERROR|Fri, 20 Sep 2013 10:33:43 -0400|visitor|content|/img/logo.png|68.100.62.42|live|404 - Page not found. Visitor came directly to this page and may have typed the URL incorrectly.
ERROR|Fri, 20 Sep 2013 10:33:51 -0400|visitor|content|/img/logo.png|68.100.62.42|live|404 - Page not found. Visitor came directly to this page and may have typed the URL incorrectly.
ERROR|Fri, 20 Sep 2013 10:33:55 -0400|visitor|content|/img/logo.png|68.100.62.42|live|404 - Page not found. Visitor came directly to this page and may have typed the URL incorrectly.
ERROR|Fri, 20 Sep 2013 10:34:03 -0400|visitor|content|/img/logo.png|68.100.62.42|live|404 - Page not found. Visitor came directly to this page and may have typed the URL incorrectly.
ERROR|Fri, 20 Sep 2013 10:34:08 -0400|visitor|content|/img/logo.png|68.100.62.42|live|404 - Page not found. Visitor came directly to this page and may have typed the URL incorrectly.
ERROR|Fri, 20 Sep 2013 10:34:12 -0400|visitor|content|/img/logo.png|68.100.62.42|live|404 - Page not found. Visitor came directly to this page and may have typed the URL incorrectly.
ERROR|Fri, 20 Sep 2013 10:34:21 -0400|visitor|content|/img/logo.png|68.100.62.42|live|404 - Page not found. Visitor came directly to this page and may have typed the URL incorrectly.
ERROR|Fri, 20 Sep 2013 10:34:38 -0400|visitor|content|/img/logo.png|68.100.62.42|live|404 - Page not found. Visitor came directly to this page and may have typed the URL incorrectly.
ERROR|Fri, 20 Sep 2013 10:34:40 -0400|visitor|content|/img/logo.png|68.100.62.42|live|404 - Page not found. Visitor came directly to this page and may have typed the URL incorrectly.
ERROR|Fri, 20 Sep 2013 10:34:43 -0400|visitor|content|/img/logo.png|68.100.62.42|live|404 - Page not found. Visitor came directly to this page and may have typed the URL incorrectly.
ERROR|Fri, 20 Sep 2013 10:34:48 -0400|visitor|content|/img/logo.png|68.100.62.42|live|404 - Page not found. Visitor came directly to this page and may have typed the URL incorrectly.
ERROR|Fri, 20 Sep 2013 10:34:55 -0400|visitor|content|/img/logo.png|68.100.62.42|live|404 - Page not found. Visitor came directly to this page and may have typed the URL incorrectly.
ERROR|Fri, 20 Sep 2013 10:35:00 -0400|visitor|content|/img/logo.png|68.100.62.42|live|404 - Page not found. Visitor came directly to this page and may have typed the URL incorrectly.
ERROR|Fri, 20 Sep 2013 10:35:07 -0400|visitor|content|/img/logo.png|68.100.62.42|live|404 - Page not found. Visitor came directly to this page and may have typed the URL incorrectly.
ERROR|Fri, 20 Sep 2013 10:35:12 -0400|visitor|content|/img/logo.png|68.100.62.42|live|404 - Page not found. Visitor came directly to this page and may have typed the URL incorrectly.
ERROR|Fri, 20 Sep 2013 10:35:31 -0400|visitor|content|/img/logo.png|68.100.62.42|live|404 - Page not found. Visitor came directly to this page and may have typed the URL incorrectly.
ERROR|Fri, 20 Sep 2013 10:35:36 -0400|visitor|content|/img/logo.png|68.100.62.42|live|404 - Page not found. Visitor came directly to this page and may have typed the URL incorrectly.
ERROR|Fri, 20 Sep 2013 10:35:42 -0400|visitor|content|/img/logo.png|68.100.62.42|live|404 - Page not found. Visitor came directly to this page and may have typed the URL incorrectly.
ERROR|Fri, 20 Sep 2013 10:35:55 -0400|visitor|content|/img/logo.png|68.100.62.42|live|404 - Page not found. Visitor came directly to this page and may have typed the URL incorrectly.
ERROR|Fri, 20 Sep 2013 10:36:05 -0400|visitor|content|/img/logo.png|68.100.62.42|live|404 - Page not found. Visitor came directly to this page and may have typed the URL incorrectly.
ERROR|Fri, 20 Sep 2013 10:36:21 -0400|visitor|content|/img/logo.png|68.100.62.42|live|404 - Page not found. Visitor came directly to this page and may have typed the URL incorrectly.
ERROR|Fri, 20 Sep 2013 10:36:39 -0400|visitor|content|/img/logo.png|68.100.62.42|live|404 - Page not found. Visitor came directly to this page and may have typed the URL incorrectly.
ERROR|Fri, 20 Sep 2013 10:36:42 -0400|visitor|content|/img/logo.png|68.100.62.42|live|404 - Page not found. Visitor came directly to this page and may have typed the URL incorrectly.
ERROR|Fri, 20 Sep 2013 10:36:52 -0400|visitor|content|/img/logo.png|68.100.62.42|live|404 - Page not found. Visitor came directly to this page and may have typed the URL incorrectly.
ERROR|Fri, 20 Sep 2013 10:36:55 -0400|visitor|content|/img/logo.png|68.100.62.42|live|404 - Page not found. Visitor came directly to this page and may have typed the URL incorrectly.
ERROR|Fri, 20 Sep 2013 10:37:07 -0400|visitor|content|/img/logo.png|68.100.62.42|live|404 - Page not found. Visitor came directly to this page and may have typed the URL incorrectly.
ERROR|Fri, 20 Sep 2013 10:37:09 -0400|visitor|content|/img/logo.png|68.100.62.42|live|404 - Page not found. Visitor came directly to this page and may have typed the URL incorrectly.
ERROR|Fri, 20 Sep 2013 10:37:14 -0400|visitor|content|/img/logo.png|68.100.62.42|live|404 - Page not found. Visitor came directly to this page and may have typed the URL incorrectly.
ERROR|Fri, 20 Sep 2013 10:37:23 -0400|visitor|content|/img/logo.png|68.100.62.42|live|404 - Page not found. Visitor came directly to this page and may have typed the URL incorrectly.
ERROR|Fri, 20 Sep 2013 10:37:32 -0400|visitor|content|/img/logo.png|68.100.62.42|live|404 - Page not found. Visitor came directly to this page and may have typed the URL incorrectly.
ERROR|Fri, 20 Sep 2013 10:37:52 -0400|visitor|content|/img/logo.png|68.100.62.42|live|404 - Page not found. Visitor came directly to this page and may have typed the URL incorrectly.
ERROR|Fri, 20 Sep 2013 10:37:55 -0400|visitor|content|/img/logo.png|68.100.62.42|live|404 - Page not found. Visitor came directly to this page and may have typed the URL incorrectly.
ERROR|Fri, 20 Sep 2013 10:38:18 -0400|visitor|content|/img/logo.png|68.100.62.42|live|404 - Page not found. Visitor came directly to this page and may have typed the URL incorrectly.
ERROR|Fri, 20 Sep 2013 10:38:25 -0400|visitor|content|/img/logo.png|68.100.62.42|live|404 - Page not found. Visitor came directly to this page and may have typed the URL incorrectly.
ERROR|Fri, 20 Sep 2013 10:38:35 -0400|visitor|content|/img/logo.png|68.100.62.42|live|404 - Page not found. Visitor came directly to this page and may have typed the URL incorrectly.
ERROR|Fri, 20 Sep 2013 10:38:55 -0400|visitor|content|/img/logo.png|68.100.62.42|live|404 - Page not found. Visitor came directly to this page and may have typed the URL incorrectly.
ERROR|Fri, 20 Sep 2013 10:39:11 -0400|visitor|content|/img/logo.png|68.100.62.42|live|404 - Page not found. Visitor came directly to this page and may have typed the URL incorrectly.
ERROR|Fri, 20 Sep 2013 10:39:47 -0400|visitor|content|/img/logo.png|68.100.62.42|live|404 - Page not found. Visitor came directly to this page and may have typed the URL incorrectly.
ERROR|Fri, 20 Sep 2013 10:39:55 -0400|visitor|content|/img/logo.png|68.100.62.42|live|404 - Page not found. Visitor came directly to this page and may have typed the URL incorrectly.
ERROR|Fri, 20 Sep 2013 10:40:01 -0400|visitor|content|/img/logo.png|68.100.62.42|live|404 - Page not found. Visitor came directly to this page and may have typed the URL incorrectly.
ERROR|Fri, 20 Sep 2013 10:40:08 -0400|visitor|content|/img/logo.png|68.100.62.42|live|404 - Page not found. Visitor came directly to this page and may have typed the URL incorrectly.
ERROR|Fri, 20 Sep 2013 10:40:25 -0400|visitor|content|/img/logo.png|68.100.62.42|live|404 - Page not found. Visitor came directly to this page and may have typed the URL incorrectly.
ERROR|Fri, 20 Sep 2013 10:40:36 -0400|visitor|content|/img/logo.png|68.100.62.42|live|404 - Page not found. Visitor came directly to this page and may have typed the URL incorrectly.
ERROR|Fri, 20 Sep 2013 10:40:41 -0400|visitor|content|/img/logo.png|68.100.62.42|live|404 - Page not found. Visitor came directly to this page and may have typed the URL incorrectly.
ERROR|Fri, 20 Sep 2013 10:40:45 -0400|visitor|content|/img/logo.png|68.100.62.42|live|404 - Page not found. Visitor came directly to this page and may have typed the URL incorrectly.
ERROR|Fri, 20 Sep 2013 10:40:53 -0400|visitor|content|/img/logo.png|68.100.62.42|live|404 - Page not found. Visitor came directly to this page and may have typed the URL incorrectly.
ERROR|Fri, 20 Sep 2013 10:40:55 -0400|visitor|content|/img/logo.png|68.100.62.42|live|404 - Page not found. Visitor came directly to this page and may have typed the URL incorrectly.
ERROR|Fri, 20 Sep 2013 10:41:15 -0400|visitor|content|/img/logo.png|68.100.62.42|live|404 - Page not found. Visitor came directly to this page and may have typed the URL incorrectly.
ERROR|Fri, 20 Sep 2013 10:41:21 -0400|visitor|content|/img/logo.png|68.100.62.42|live|404 - Page not found. Visitor came directly to this page and may have typed the URL incorrectly.
ERROR|Fri, 20 Sep 2013 10:41:31 -0400|visitor|content|/img/logo.png|68.100.62.42|live|404 - Page not found. Visitor came directly to this page and may have typed the URL incorrectly.
ERROR|Fri, 20 Sep 2013 10:41:57 -0400|visitor|content|/img/logo.png|68.100.62.42|live|404 - Page not found. Visitor came directly to this page and may have typed the URL incorrectly.
ERROR|Fri, 20 Sep 2013 10:42:01 -0400|visitor|content|/img/logo.png|68.100.62.42|live|404 - Page not found. Visitor came directly to this page and may have typed the URL incorrectly.
ERROR|Fri, 20 Sep 2013 10:42:10 -0400|visitor|content|/img/logo.png|68.100.62.42|live|404 - Page not found. Visitor came directly to this page and may have typed the URL incorrectly.
ERROR|Fri, 20 Sep 2013 10:42:16 -0400|visitor|content|/img/logo.png|68.100.62.42|live|404 - Page not found. Visitor came directly to this page and may have typed the URL incorrectly.
ERROR|Fri, 20 Sep 2013 10:42:20 -0400|visitor|content|/img/logo.png|68.100.62.42|live|404 - Page not found. Visitor came directly to this page and may have typed the URL incorrectly.
ERROR|Fri, 20 Sep 2013 10:42:27 -0400|visitor|content|/img/logo.png|68.100.62.42|live|404 - Page not found. Visitor came directly to this page and may have typed the URL incorrectly.
ERROR|Fri, 20 Sep 2013 10:42:36 -0400|visitor|content|/img/logo.png|68.100.62.42|live|404 - Page not found. Visitor came directly to this page and may have typed the URL incorrectly.
ERROR|Fri, 20 Sep 2013 10:42:43 -0400|visitor|content|/img/logo.png|68.100.62.42|live|404 - Page not found. Visitor came directly to this page and may have typed the URL incorrectly.
ERROR|Fri, 20 Sep 2013 10:42:49 -0400|visitor|content|/img/logo.png|68.100.62.42|live|404 - Page not found. Visitor came directly to this page and may have typed the URL incorrectly.
ERROR|Fri, 20 Sep 2013 10:42:58 -0400|visitor|content|/img/logo.png|68.100.62.42|live|404 - Page not found. Visitor came directly to this page and may have typed the URL incorrectly.
ERROR|Fri, 20 Sep 2013 10:43:38 -0400|visitor|content|/img/logo.png|68.100.62.42|live|404 - Page not found. Visitor came directly to this page and may have typed the URL incorrectly.
ERROR|Fri, 20 Sep 2013 10:43:39 -0400|visitor|content|/img/logo.png|68.100.62.42|live|404 - Page not found. Visitor came directly to this page and may have typed the URL incorrectly.
ERROR|Fri, 20 Sep 2013 10:43:45 -0400|visitor|content|/img/logo.png|68.100.62.42|live|404 - Page not found. Visitor came directly to this page and may have typed the URL incorrectly.
ERROR|Fri, 20 Sep 2013 10:43:52 -0400|visitor|content|/img/logo.png|68.100.62.42|live|404 - Page not found. Visitor came directly to this page and may have typed the URL incorrectly.
ERROR|Fri, 20 Sep 2013 10:43:57 -0400|visitor|content|/img/logo.png|68.100.62.42|live|404 - Page not found. Visitor came directly to this page and may have typed the URL incorrectly.
ERROR|Fri, 20 Sep 2013 10:43:58 -0400|visitor|content|/img/logo.png|68.100.62.42|live|404 - Page not found. Visitor came directly to this page and may have typed the URL incorrectly.
ERROR|Fri, 20 Sep 2013 10:44:03 -0400|visitor|content|/img/logo.png|68.100.62.42|live|404 - Page not found. Visitor came directly to this page and may have typed the URL incorrectly.
ERROR|Fri, 20 Sep 2013 10:44:31 -0400|visitor|content|/img/logo.png|68.100.62.42|live|404 - Page not found. Visitor came directly to this page and may have typed the URL incorrectly.
ERROR|Fri, 20 Sep 2013 10:44:38 -0400|visitor|content|/img/logo.png|68.100.62.42|live|404 - Page not found. Visitor came directly to this page and may have typed the URL incorrectly.
ERROR|Fri, 20 Sep 2013 10:44:55 -0400|visitor|content|/img/logo.png|68.100.62.42|live|404 - Page not found. Visitor came directly to this page and may have typed the URL incorrectly.
ERROR|Fri, 20 Sep 2013 10:44:57 -0400|visitor|content|/img/logo.png|68.100.62.42|live|404 - Page not found. Visitor came directly to this page and may have typed the URL incorrectly.
ERROR|Fri, 20 Sep 2013 10:45:06 -0400|visitor|content|/img/logo.png|68.100.62.42|live|404 - Page not found. Visitor came directly to this page and may have typed the URL incorrectly.
ERROR|Fri, 20 Sep 2013 10:45:29 -0400|visitor|content|/img/logo.png|68.100.62.42|live|404 - Page not found. Visitor came directly to this page and may have typed the URL incorrectly.
ERROR|Fri, 20 Sep 2013 10:45:43 -0400|visitor|content|/img/logo.png|68.100.62.42|live|404 - Page not found. Visitor came directly to this page and may have typed the URL incorrectly.
ERROR|Fri, 20 Sep 2013 10:45:49 -0400|visitor|content|/img/logo.png|68.100.62.42|live|404 - Page not found. Visitor came directly to this page and may have typed the URL incorrectly.
ERROR|Fri, 20 Sep 2013 10:45:53 -0400|visitor|content|/img/logo.png|68.100.62.42|live|404 - Page not found. Visitor came directly to this page and may have typed the URL incorrectly.
ERROR|Fri, 20 Sep 2013 10:45:57 -0400|visitor|content|/img/logo.png|68.100.62.42|live|404 - Page not found. Visitor came directly to this page and may have typed the URL incorrectly.
ERROR|Fri, 20 Sep 2013 10:46:00 -0400|visitor|content|/img/logo.png|68.100.62.42|live|404 - Page not found. Visitor came directly to this page and may have typed the URL incorrectly.
ERROR|Fri, 20 Sep 2013 10:46:25 -0400|visitor|content|/img/logo.png|68.100.62.42|live|404 - Page not found. Visitor came directly to this page and may have typed the URL incorrectly.
ERROR|Fri, 20 Sep 2013 10:46:31 -0400|visitor|content|/img/logo.png|68.100.62.42|live|404 - Page not found. Visitor came directly to this page and may have typed the URL incorrectly.
ERROR|Fri, 20 Sep 2013 10:46:38 -0400|visitor|content|/img/logo.png|68.100.62.42|live|404 - Page not found. Visitor came directly to this page and may have typed the URL incorrectly.
ERROR|Fri, 20 Sep 2013 10:46:39 -0400|visitor|content|/img/logo.png|68.100.62.42|live|404 - Page not found. Visitor came directly to this page and may have typed the URL incorrectly.
ERROR|Fri, 20 Sep 2013 10:46:57 -0400|visitor|content|/img/logo.png|68.100.62.42|live|404 - Page not found. Visitor came directly to this page and may have typed the URL incorrectly.
ERROR|Fri, 20 Sep 2013 10:46:57 -0400|visitor|content|/img/logo.png|68.100.62.42|live|404 - Page not found. Visitor came directly to this page and may have typed the URL incorrectly.
ERROR|Fri, 20 Sep 2013 10:47:11 -0400|visitor|content|/img/logo.png|68.100.62.42|live|404 - Page not found. Visitor came directly to this page and may have typed the URL incorrectly.
ERROR|Fri, 20 Sep 2013 10:47:20 -0400|visitor|content|/img/logo.png|68.100.62.42|live|404 - Page not found. Visitor came directly to this page and may have typed the URL incorrectly.
ERROR|Fri, 20 Sep 2013 10:47:30 -0400|visitor|content|/img/logo.png|68.100.62.42|live|404 - Page not found. Visitor came directly to this page and may have typed the URL incorrectly.
ERROR|Fri, 20 Sep 2013 10:47:44 -0400|visitor|content|/img/logo.png|68.100.62.42|live|404 - Page not found. Visitor came directly to this page and may have typed the URL incorrectly.
ERROR|Fri, 20 Sep 2013 10:47:52 -0400|visitor|content|/img/logo.png|68.100.62.42|live|404 - Page not found. Visitor came directly to this page and may have typed the URL incorrectly.
ERROR|Fri, 20 Sep 2013 10:47:57 -0400|visitor|content|/img/logo.png|68.100.62.42|live|404 - Page not found. Visitor came directly to this page and may have typed the URL incorrectly.
ERROR|Fri, 20 Sep 2013 10:48:17 -0400|visitor|content|/img/logo.png|68.100.62.42|live|404 - Page not found. Visitor came directly to this page and may have typed the URL incorrectly.
ERROR|Fri, 20 Sep 2013 10:48:27 -0400|visitor|content|/img/logo.png|68.100.62.42|live|404 - Page not found. Visitor came directly to this page and may have typed the URL incorrectly.
ERROR|Fri, 20 Sep 2013 10:48:46 -0400|visitor|content|/img/logo.png|68.100.62.42|live|404 - Page not found. Visitor came directly to this page and may have typed the URL incorrectly.
ERROR|Fri, 20 Sep 2013 10:48:53 -0400|visitor|content|/img/logo.png|68.100.62.42|live|404 - Page not found. Visitor came directly to this page and may have typed the URL incorrectly.
ERROR|Fri, 20 Sep 2013 10:48:57 -0400|visitor|content|/img/logo.png|68.100.62.42|live|404 - Page not found. Visitor came directly to this page and may have typed the URL incorrectly.
ERROR|Fri, 20 Sep 2013 10:49:09 -0400|visitor|content|/img/logo.png|68.100.62.42|live|404 - Page not found. Visitor came directly to this page and may have typed the URL incorrectly.
ERROR|Fri, 20 Sep 2013 10:49:22 -0400|visitor|content|/img/logo.png|68.100.62.42|live|404 - Page not found. Visitor came directly to this page and may have typed the URL incorrectly.
ERROR|Fri, 20 Sep 2013 10:49:26 -0400|visitor|content|/img/logo.png|68.100.62.42|live|404 - Page not found. Visitor came directly to this page and may have typed the URL incorrectly.
ERROR|Fri, 20 Sep 2013 10:49:44 -0400|visitor|content|/img/logo.png|68.100.62.42|live|404 - Page not found. Visitor came directly to this page and may have typed the URL incorrectly.
ERROR|Fri, 20 Sep 2013 10:49:57 -0400|visitor|content|/img/logo.png|68.100.62.42|live|404 - Page not found. Visitor came directly to this page and may have typed the URL incorrectly.
ERROR|Fri, 20 Sep 2013 10:50:00 -0400|visitor|content|/img/logo.png|68.100.62.42|live|404 - Page not found. Visitor came directly to this page and may have typed the URL incorrectly.
ERROR|Fri, 20 Sep 2013 10:50:12 -0400|visitor|content|/img/logo.png|68.100.62.42|live|404 - Page not found. Visitor came directly to this page and may have typed the URL incorrectly.
ERROR|Fri, 20 Sep 2013 10:50:19 -0400|visitor|content|/img/logo.png|68.100.62.42|live|404 - Page not found. Visitor came directly to this page and may have typed the URL incorrectly.
ERROR|Fri, 20 Sep 2013 10:50:24 -0400|visitor|content|/img/logo.png|68.100.62.42|live|404 - Page not found. Visitor came directly to this page and may have typed the URL incorrectly.
ERROR|Fri, 20 Sep 2013 10:50:29 -0400|visitor|content|/img/logo.png|68.100.62.42|live|404 - Page not found. Visitor came directly to this page and may have typed the URL incorrectly.
ERROR|Fri, 20 Sep 2013 10:50:39 -0400|visitor|content|/img/logo.png|68.100.62.42|live|404 - Page not found. Visitor came directly to this page and may have typed the URL incorrectly.
ERROR|Fri, 20 Sep 2013 10:50:53 -0400|visitor|content|/img/logo.png|68.100.62.42|live|404 - Page not found. Visitor came directly to this page and may have typed the URL incorrectly.
ERROR|Fri, 20 Sep 2013 10:50:57 -0400|visitor|content|/img/logo.png|68.100.62.42|live|404 - Page not found. Visitor came directly to this page and may have typed the URL incorrectly.
ERROR|Fri, 20 Sep 2013 10:51:03 -0400|visitor|content|/img/logo.png|68.100.62.42|live|404 - Page not found. Visitor came directly to this page and may have typed the URL incorrectly.
ERROR|Fri, 20 Sep 2013 10:51:11 -0400|visitor|content|/img/logo.png|68.100.62.42|live|404 - Page not found. Visitor came directly to this page and may have typed the URL incorrectly.
ERROR|Fri, 20 Sep 2013 10:51:31 -0400|visitor|content|/img/logo.png|68.100.62.42|live|404 - Page not found. Visitor came directly to this page and may have typed the URL incorrectly.
ERROR|Fri, 20 Sep 2013 10:51:52 -0400|visitor|content|/img/logo.png|68.100.62.42|live|404 - Page not found. Visitor came directly to this page and may have typed the URL incorrectly.
ERROR|Fri, 20 Sep 2013 10:51:57 -0400|visitor|content|/img/logo.png|68.100.62.42|live|404 - Page not found. Visitor came directly to this page and may have typed the URL incorrectly.
ERROR|Fri, 20 Sep 2013 10:52:09 -0400|visitor|content|/img/logo.png|68.100.62.42|live|404 - Page not found. Visitor came directly to this page and may have typed the URL incorrectly.
ERROR|Fri, 20 Sep 2013 10:52:12 -0400|visitor|content|/img/logo.png|68.100.62.42|live|404 - Page not found. Visitor came directly to this page and may have typed the URL incorrectly.
ERROR|Fri, 20 Sep 2013 10:52:20 -0400|visitor|content|/img/logo.png|68.100.62.42|live|404 - Page not found. Visitor came directly to this page and may have typed the URL incorrectly.
ERROR|Fri, 20 Sep 2013 10:52:34 -0400|visitor|content|/img/logo.png|68.100.62.42|live|404 - Page not found. Visitor came directly to this page and may have typed the URL incorrectly.
ERROR|Fri, 20 Sep 2013 10:52:57 -0400|visitor|content|/img/logo.png|68.100.62.42|live|404 - Page not found. Visitor came directly to this page and may have typed the URL incorrectly.
ERROR|Fri, 20 Sep 2013 10:53:19 -0400|visitor|content|/img/logo.png|68.100.62.42|live|404 - Page not found. Visitor came directly to this page and may have typed the URL incorrectly.
ERROR|Fri, 20 Sep 2013 10:53:21 -0400|visitor|content|/img/logo.png|68.100.62.42|live|404 - Page not found. Visitor came directly to this page and may have typed the URL incorrectly.
ERROR|Fri, 20 Sep 2013 10:53:24 -0400|visitor|content|/img/logo.png|68.100.62.42|live|404 - Page not found. Visitor came directly to this page and may have typed the URL incorrectly.
ERROR|Fri, 20 Sep 2013 10:53:31 -0400|visitor|content|/img/logo.png|68.100.62.42|live|404 - Page not found. Visitor came directly to this page and may have typed the URL incorrectly.
ERROR|Fri, 20 Sep 2013 10:53:48 -0400|visitor|content|/img/logo.png|68.100.62.42|live|404 - Page not found. Visitor came directly to this page and may have typed the URL incorrectly.
ERROR|Fri, 20 Sep 2013 10:53:57 -0400|visitor|content|/img/logo.png|68.100.62.42|live|404 - Page not found. Visitor came directly to this page and may have typed the URL incorrectly.
ERROR|Fri, 20 Sep 2013 10:54:10 -0400|visitor|content|/img/logo.png|68.100.62.42|live|404 - Page not found. Visitor came directly to this page and may have typed the URL incorrectly.
ERROR|Fri, 20 Sep 2013 10:54:19 -0400|visitor|content|/img/logo.png|68.100.62.42|live|404 - Page not found. Visitor came directly to this page and may have typed the URL incorrectly.
ERROR|Fri, 20 Sep 2013 10:54:33 -0400|visitor|content|/img/logo.png|68.100.62.42|live|404 - Page not found. Visitor came directly to this page and may have typed the URL incorrectly.
ERROR|Fri, 20 Sep 2013 10:54:44 -0400|visitor|content|/img/logo.png|68.100.62.42|live|404 - Page not found. Visitor came directly to this page and may have typed the URL incorrectly.
ERROR|Fri, 20 Sep 2013 10:54:50 -0400|visitor|content|/img/logo.png|68.100.62.42|live|404 - Page not found. Visitor came directly to this page and may have typed the URL incorrectly.
ERROR|Fri, 20 Sep 2013 10:54:57 -0400|visitor|content|/img/logo.png|68.100.62.42|live|404 - Page not found. Visitor came directly to this page and may have typed the URL incorrectly.
ERROR|Fri, 20 Sep 2013 10:55:16 -0400|visitor|content|/img/logo.png|68.100.62.42|live|404 - Page not found. Visitor came directly to this page and may have typed the URL incorrectly.
ERROR|Fri, 20 Sep 2013 10:55:34 -0400|visitor|content|/img/logo.png|68.100.62.42|live|404 - Page not found. Visitor came directly to this page and may have typed the URL incorrectly.
ERROR|Fri, 20 Sep 2013 10:55:47 -0400|visitor|content|/img/logo.png|68.100.62.42|live|404 - Page not found. Visitor came directly to this page and may have typed the URL incorrectly.
ERROR|Fri, 20 Sep 2013 10:55:51 -0400|visitor|content|/img/logo.png|68.100.62.42|live|404 - Page not found. Visitor came directly to this page and may have typed the URL incorrectly.
ERROR|Fri, 20 Sep 2013 10:55:56 -0400|visitor|content|/img/logo.png|68.100.62.42|live|404 - Page not found. Visitor came directly to this page and may have typed the URL incorrectly.
ERROR|Fri, 20 Sep 2013 10:55:57 -0400|visitor|content|/img/logo.png|68.100.62.42|live|404 - Page not found. Visitor came directly to this page and may have typed the URL incorrectly.
ERROR|Fri, 20 Sep 2013 10:56:07 -0400|visitor|content|/img/logo.png|68.100.62.42|live|404 - Page not found. Visitor came directly to this page and may have typed the URL incorrectly.
ERROR|Fri, 20 Sep 2013 10:56:16 -0400|visitor|content|/img/logo.png|68.100.62.42|live|404 - Page not found. Visitor came directly to this page and may have typed the URL incorrectly.
ERROR|Fri, 20 Sep 2013 10:56:29 -0400|visitor|content|/img/logo.png|68.100.62.42|live|404 - Page not found. Visitor came directly to this page and may have typed the URL incorrectly.
ERROR|Fri, 20 Sep 2013 10:56:32 -0400|visitor|content|/img/logo.png|68.100.62.42|live|404 - Page not found. Visitor came directly to this page and may have typed the URL incorrectly.
ERROR|Fri, 20 Sep 2013 10:56:42 -0400|visitor|content|/img/logo.png|68.100.62.42|live|404 - Page not found. Visitor came directly to this page and may have typed the URL incorrectly.
ERROR|Fri, 20 Sep 2013 10:56:57 -0400|visitor|content|/img/logo.png|68.100.62.42|live|404 - Page not found. Visitor came directly to this page and may have typed the URL incorrectly.
ERROR|Fri, 20 Sep 2013 10:56:58 -0400|visitor|content|/img/logo.png|68.100.62.42|live|404 - Page not found. Visitor came directly to this page and may have typed the URL incorrectly.
ERROR|Fri, 20 Sep 2013 10:57:07 -0400|visitor|content|/img/logo.png|68.100.62.42|live|404 - Page not found. Visitor came directly to this page and may have typed the URL incorrectly.
ERROR|Fri, 20 Sep 2013 10:57:15 -0400|visitor|content|/img/logo.png|68.100.62.42|live|404 - Page not found. Visitor came directly to this page and may have typed the URL incorrectly.
ERROR|Fri, 20 Sep 2013 10:57:18 -0400|visitor|content|/img/logo.png|68.100.62.42|live|404 - Page not found. Visitor came directly to this page and may have typed the URL incorrectly.
ERROR|Fri, 20 Sep 2013 10:57:22 -0400|visitor|content|/img/logo.png|68.100.62.42|live|404 - Page not found. Visitor came directly to this page and may have typed the URL incorrectly.
ERROR|Fri, 20 Sep 2013 10:57:57 -0400|visitor|content|/img/logo.png|68.100.62.42|live|404 - Page not found. Visitor came directly to this page and may have typed the URL incorrectly.
ERROR|Fri, 20 Sep 2013 10:58:43 -0400|visitor|content|/img/logo.png|68.100.62.42|live|404 - Page not found. Visitor came directly to this page and may have typed the URL incorrectly.
ERROR|Fri, 20 Sep 2013 10:58:57 -0400|visitor|content|/img/logo.png|68.100.62.42|live|404 - Page not found. Visitor came directly to this page and may have typed the URL incorrectly.
ERROR|Fri, 20 Sep 2013 10:59:29 -0400|visitor|content|/img/logo.png|68.100.62.42|live|404 - Page not found. Visitor came directly to this page and may have typed the URL incorrectly.
ERROR|Fri, 20 Sep 2013 10:59:30 -0400|visitor|content|/img/logo.png|68.100.62.42|live|404 - Page not found. Visitor came directly to this page and may have typed the URL incorrectly.
ERROR|Fri, 20 Sep 2013 10:59:36 -0400|visitor|content|/img/logo.png|68.100.62.42|live|404 - Page not found. Visitor came directly to this page and may have typed the URL incorrectly.
ERROR|Fri, 20 Sep 2013 10:59:57 -0400|visitor|content|/img/logo.png|69.52.69.52|live|404 - Page not found. Visitor came directly to this page and may have typed the URL incorrectly.
ERROR|Fri, 20 Sep 2013 10:59:59 -0400|visitor|content|/img/logo.png|68.100.62.42|live|404 - Page not found. Visitor came directly to this page and may have typed the URL incorrectly.
ERROR|Fri, 20 Sep 2013 11:00:14 -0400|visitor|content|/img/logo.png|68.100.62.42|live|404 - Page not found. Visitor came directly to this page and may have typed the URL incorrectly.
ERROR|Fri, 20 Sep 2013 11:00:18 -0400|visitor|content|/img/logo.png|68.100.62.42|live|404 - Page not found. Visitor came directly to this page and may have typed the URL incorrectly.
ERROR|Fri, 20 Sep 2013 11:00:21 -0400|visitor|content|/img/logo.png|68.100.62.42|live|404 - Page not found. Visitor came directly to this page and may have typed the URL incorrectly.
ERROR|Fri, 20 Sep 2013 11:00:26 -0400|visitor|content|/img/logo.png|68.100.62.42|live|404 - Page not found. Visitor came directly to this page and may have typed the URL incorrectly.
ERROR|Fri, 20 Sep 2013 11:00:29 -0400|visitor|content|/img/logo.png|68.100.62.42|live|404 - Page not found. Visitor came directly to this page and may have typed the URL incorrectly.
ERROR|Fri, 20 Sep 2013 11:00:44 -0400|visitor|content|/img/logo.png|68.100.62.42|live|404 - Page not found. Visitor came directly to this page and may have typed the URL incorrectly.
ERROR|Fri, 20 Sep 2013 11:00:45 -0400|visitor|content|/img/logo.png|68.100.62.42|live|404 - Page not found. Visitor came directly to this page and may have typed the URL incorrectly.
ERROR|Fri, 20 Sep 2013 11:00:53 -0400|visitor|content|/img/logo.png|68.100.62.42|live|404 - Page not found. Visitor came directly to this page and may have typed the URL incorrectly.
ERROR|Fri, 20 Sep 2013 11:00:58 -0400|visitor|content|/img/logo.png|68.100.62.42|live|404 - Page not found. Visitor came directly to this page and may have typed the URL incorrectly.
ERROR|Fri, 20 Sep 2013 11:01:39 -0400|visitor|content|/img/logo.png|68.100.62.42|live|404 - Page not found. Visitor came directly to this page and may have typed the URL incorrectly.
ERROR|Fri, 20 Sep 2013 11:01:44 -0400|visitor|content|/img/logo.png|68.100.62.42|live|404 - Page not found. Visitor came directly to this page and may have typed the URL incorrectly.
ERROR|Fri, 20 Sep 2013 11:02:08 -0400|visitor|content|/img/logo.png|108.28.199.223|live|404 - Page not found. Visitor came directly to this page and may have typed the URL incorrectly.
ERROR|Fri, 20 Sep 2013 11:02:48 -0400|visitor|content|/img/logo.png|68.100.62.42|live|404 - Page not found. Visitor came directly to this page and may have typed the URL incorrectly.
ERROR|Fri, 20 Sep 2013 11:02:59 -0400|visitor|content|/img/logo.png|65.222.235.120|live|404 - Page not found. Visitor came directly to this page and may have typed the URL incorrectly.
ERROR|Fri, 20 Sep 2013 11:03:04 -0400|visitor|content|/img/logo.png|65.222.235.120|live|404 - Page not found. Visitor came directly to this page and may have typed the URL incorrectly.
ERROR|Fri, 20 Sep 2013 11:03:42 -0400|visitor|content|/img/logo.png|174.255.32.41|live|404 - Page not found. Visitor came directly to this page and may have typed the URL incorrectly.
ERROR|Fri, 20 Sep 2013 11:05:19 -0400|visitor|content|/img/logo.png|174.236.230.231|live|404 - Page not found. Visitor came directly to this page and may have typed the URL incorrectly.
ERROR|Fri, 20 Sep 2013 11:21:14 -0400|visitor|content|/img/logo.png|72.66.115.20|live|404 - Page not found. Visitor came directly to this page and may have typed the URL incorrectly.
ERROR|Fri, 20 Sep 2013 11:21:14 -0400|visitor|content|/img/logo.png|72.66.115.20|live|404 - Page not found. Visitor came directly to this page and may have typed the URL incorrectly.
ERROR|Fri, 20 Sep 2013 11:21:29 -0400|visitor|content|/img/logo.png|72.66.115.20|live|404 - Page not found. Visitor came directly to this page and may have typed the URL incorrectly.
ERROR|Fri, 20 Sep 2013 11:27:17 -0400|visitor|content|/img/logo.png|65.222.235.120|live|404 - Page not found. Visitor came directly to this page and may have typed the URL incorrectly.
ERROR|Fri, 20 Sep 2013 11:35:54 -0400|visitor|content|/img/logo.png|173.72.237.8|live|404 - Page not found. Visitor came directly to this page and may have typed the URL incorrectly.
ERROR|Fri, 20 Sep 2013 11:38:47 -0400|visitor|content|/img/logo.png|166.137.88.41|live|404 - Page not found. Visitor came directly to this page and may have typed the URL incorrectly.
ERROR|Fri, 20 Sep 2013 11:41:17 -0400|visitor|content|/img/logo.png|174.236.200.143|live|404 - Page not found. Visitor came directly to this page and may have typed the URL incorrectly.
ERROR|Fri, 20 Sep 2013 11:45:25 -0400|visitor|content|/img/logo.png|72.66.115.20|live|404 - Page not found. Visitor came directly to this page and may have typed the URL incorrectly.
ERROR|Fri, 20 Sep 2013 11:46:23 -0400|visitor|content|/img/logo.png|68.100.62.42|live|404 - Page not found. Visitor came directly to this page and may have typed the URL incorrectly.
ERROR|Fri, 20 Sep 2013 11:46:24 -0400|visitor|content|/img/logo.png|68.100.62.42|live|404 - Page not found. Visitor came directly to this page and may have typed the URL incorrectly.
ERROR|Fri, 20 Sep 2013 11:46:26 -0400|visitor|content|/img/logo.png|72.66.115.20|live|404 - Page not found. Visitor came directly to this page and may have typed the URL incorrectly.
ERROR|Fri, 20 Sep 2013 11:46:28 -0400|visitor|content|/img/logo.png|68.100.62.42|live|404 - Page not found. Visitor came directly to this page and may have typed the URL incorrectly.
ERROR|Fri, 20 Sep 2013 11:46:34 -0400|visitor|content|/img/logo.png|72.66.115.20|live|404 - Page not found. Visitor came directly to this page and may have typed the URL incorrectly.
ERROR|Fri, 20 Sep 2013 11:46:43 -0400|visitor|content|/img/logo.png|68.100.62.42|live|404 - Page not found. Visitor came directly to this page and may have typed the URL incorrectly.
ERROR|Fri, 20 Sep 2013 11:46:46 -0400|visitor|content|/img/logo.png|68.100.62.42|live|404 - Page not found. Visitor came directly to this page and may have typed the URL incorrectly.
ERROR|Fri, 20 Sep 2013 11:47:04 -0400|visitor|content|/img/logo.png|68.100.62.42|live|404 - Page not found. Visitor came directly to this page and may have typed the URL incorrectly.
ERROR|Fri, 20 Sep 2013 11:47:24 -0400|visitor|content|/img/logo.png|68.100.62.42|live|404 - Page not found. Visitor came directly to this page and may have typed the URL incorrectly.
ERROR|Fri, 20 Sep 2013 11:47:24 -0400|visitor|content|/img/logo.png|68.100.62.42|live|404 - Page not found. Visitor came directly to this page and may have typed the URL incorrectly.
ERROR|Fri, 20 Sep 2013 11:47:30 -0400|visitor|content|/img/logo.png|68.100.62.42|live|404 - Page not found. Visitor came directly to this page and may have typed the URL incorrectly.
ERROR|Fri, 20 Sep 2013 11:47:48 -0400|visitor|content|/img/logo.png|68.100.62.42|live|404 - Page not found. Visitor came directly to this page and may have typed the URL incorrectly.
ERROR|Fri, 20 Sep 2013 11:47:57 -0400|visitor|content|/img/logo.png|68.100.62.42|live|404 - Page not found. Visitor came directly to this page and may have typed the URL incorrectly.
ERROR|Fri, 20 Sep 2013 11:48:09 -0400|visitor|content|/img/logo.png|68.100.62.42|live|404 - Page not found. Visitor came directly to this page and may have typed the URL incorrectly.
ERROR|Fri, 20 Sep 2013 11:48:26 -0400|visitor|content|/img/logo.png|68.100.62.42|live|404 - Page not found. Visitor came directly to this page and may have typed the URL incorrectly.
ERROR|Fri, 20 Sep 2013 11:48:34 -0400|visitor|content|/img/logo.png|68.100.62.42|live|404 - Page not found. Visitor came directly to this page and may have typed the URL incorrectly.
ERROR|Fri, 20 Sep 2013 11:48:48 -0400|visitor|content|/img/logo.png|68.100.62.42|live|404 - Page not found. Visitor came directly to this page and may have typed the URL incorrectly.
ERROR|Fri, 20 Sep 2013 11:48:52 -0400|visitor|content|/img/logo.png|68.100.62.42|live|404 - Page not found. Visitor came directly to this page and may have typed the URL incorrectly.
ERROR|Fri, 20 Sep 2013 11:49:04 -0400|visitor|content|/img/logo.png|68.100.62.42|live|404 - Page not found. Visitor came directly to this page and may have typed the URL incorrectly.
ERROR|Fri, 20 Sep 2013 11:49:25 -0400|visitor|content|/img/logo.png|68.100.62.42|live|404 - Page not found. Visitor came directly to this page and may have typed the URL incorrectly.
ERROR|Fri, 20 Sep 2013 11:49:37 -0400|visitor|content|/img/logo.png|68.100.62.42|live|404 - Page not found. Visitor came directly to this page and may have typed the URL incorrectly.
ERROR|Fri, 20 Sep 2013 11:49:47 -0400|visitor|content|/img/logo.png|68.100.62.42|live|404 - Page not found. Visitor came directly to this page and may have typed the URL incorrectly.
ERROR|Fri, 20 Sep 2013 11:50:18 -0400|visitor|content|/img/logo.png|68.100.62.42|live|404 - Page not found. Visitor came directly to this page and may have typed the URL incorrectly.
ERROR|Fri, 20 Sep 2013 11:50:25 -0400|visitor|content|/img/logo.png|68.100.62.42|live|404 - Page not found. Visitor came directly to this page and may have typed the URL incorrectly.
ERROR|Fri, 20 Sep 2013 11:50:33 -0400|visitor|content|/img/logo.png|68.100.62.42|live|404 - Page not found. Visitor came directly to this page and may have typed the URL incorrectly.
ERROR|Fri, 20 Sep 2013 11:50:45 -0400|visitor|content|/img/logo.png|68.100.62.42|live|404 - Page not found. Visitor came directly to this page and may have typed the URL incorrectly.
ERROR|Fri, 20 Sep 2013 11:51:02 -0400|visitor|content|/img/logo.png|68.100.62.42|live|404 - Page not found. Visitor came directly to this page and may have typed the URL incorrectly.
ERROR|Fri, 20 Sep 2013 11:51:25 -0400|visitor|content|/img/logo.png|68.100.62.42|live|404 - Page not found. Visitor came directly to this page and may have typed the URL incorrectly.
ERROR|Fri, 20 Sep 2013 11:52:25 -0400|visitor|content|/img/logo.png|68.100.62.42|live|404 - Page not found. Visitor came directly to this page and may have typed the URL incorrectly.
ERROR|Fri, 20 Sep 2013 11:52:25 -0400|visitor|content|/img/logo.png|68.100.62.42|live|404 - Page not found. Visitor came directly to this page and may have typed the URL incorrectly.
ERROR|Fri, 20 Sep 2013 11:52:36 -0400|visitor|content|/img/logo.png|68.100.62.42|live|404 - Page not found. Visitor came directly to this page and may have typed the URL incorrectly.
ERROR|Fri, 20 Sep 2013 11:52:56 -0400|visitor|content|/img/logo.png|68.100.62.42|live|404 - Page not found. Visitor came directly to this page and may have typed the URL incorrectly.
ERROR|Fri, 20 Sep 2013 11:53:04 -0400|visitor|content|/img/logo.png|68.100.62.42|live|404 - Page not found. Visitor came directly to this page and may have typed the URL incorrectly.
ERROR|Fri, 20 Sep 2013 11:53:18 -0400|visitor|content|/img/logo.png|68.100.62.42|live|404 - Page not found. Visitor came directly to this page and may have typed the URL incorrectly.
ERROR|Fri, 20 Sep 2013 11:53:25 -0400|visitor|content|/img/logo.png|68.100.62.42|live|404 - Page not found. Visitor came directly to this page and may have typed the URL incorrectly.
ERROR|Fri, 20 Sep 2013 11:54:08 -0400|visitor|content|/img/logo.png|68.100.62.42|live|404 - Page not found. Visitor came directly to this page and may have typed the URL incorrectly.
ERROR|Fri, 20 Sep 2013 11:54:18 -0400|visitor|content|/img/logo.png|68.100.62.42|live|404 - Page not found. Visitor came directly to this page and may have typed the URL incorrectly.
ERROR|Fri, 20 Sep 2013 11:54:23 -0400|visitor|content|/img/logo.png|68.100.62.42|live|404 - Page not found. Visitor came directly to this page and may have typed the URL incorrectly.
ERROR|Fri, 20 Sep 2013 11:54:25 -0400|visitor|content|/img/logo.png|68.100.62.42|live|404 - Page not found. Visitor came directly to this page and may have typed the URL incorrectly.
ERROR|Fri, 20 Sep 2013 11:55:04 -0400|visitor|content|/img/logo.png|68.100.62.42|live|404 - Page not found. Visitor came directly to this page and may have typed the URL incorrectly.
ERROR|Fri, 20 Sep 2013 11:55:19 -0400|visitor|content|/img/logo.png|68.100.62.42|live|404 - Page not found. Visitor came directly to this page and may have typed the URL incorrectly.
ERROR|Fri, 20 Sep 2013 11:55:25 -0400|visitor|content|/img/logo.png|68.100.62.42|live|404 - Page not found. Visitor came directly to this page and may have typed the URL incorrectly.
ERROR|Fri, 20 Sep 2013 11:55:29 -0400|visitor|content|/img/logo.png|68.100.62.42|live|404 - Page not found. Visitor came directly to this page and may have typed the URL incorrectly.
ERROR|Fri, 20 Sep 2013 11:55:57 -0400|visitor|content|/img/logo.png|68.100.62.42|live|404 - Page not found. Visitor came directly to this page and may have typed the URL incorrectly.
ERROR|Fri, 20 Sep 2013 11:56:25 -0400|visitor|content|/img/logo.png|68.100.62.42|live|404 - Page not found. Visitor came directly to this page and may have typed the URL incorrectly.
ERROR|Fri, 20 Sep 2013 11:56:28 -0400|visitor|content|/img/logo.png|68.100.62.42|live|404 - Page not found. Visitor came directly to this page and may have typed the URL incorrectly.
ERROR|Fri, 20 Sep 2013 11:56:31 -0400|visitor|content|/img/logo.png|68.100.62.42|live|404 - Page not found. Visitor came directly to this page and may have typed the URL incorrectly.
ERROR|Fri, 20 Sep 2013 11:56:54 -0400|visitor|content|/img/logo.png|68.100.62.42|live|404 - Page not found. Visitor came directly to this page and may have typed the URL incorrectly.
ERROR|Fri, 20 Sep 2013 11:57:17 -0400|visitor|content|/img/logo.png|68.100.62.42|live|404 - Page not found. Visitor came directly to this page and may have typed the URL incorrectly.
ERROR|Fri, 20 Sep 2013 11:57:23 -0400|visitor|content|/img/logo.png|68.100.62.42|live|404 - Page not found. Visitor came directly to this page and may have typed the URL incorrectly.
ERROR|Fri, 20 Sep 2013 11:57:25 -0400|visitor|content|/img/logo.png|68.100.62.42|live|404 - Page not found. Visitor came directly to this page and may have typed the URL incorrectly.
ERROR|Fri, 20 Sep 2013 11:57:26 -0400|visitor|content|/img/logo.png|68.100.62.42|live|404 - Page not found. Visitor came directly to this page and may have typed the URL incorrectly.
ERROR|Fri, 20 Sep 2013 11:58:01 -0400|visitor|content|/img/logo.png|68.100.62.42|live|404 - Page not found. Visitor came directly to this page and may have typed the URL incorrectly.
ERROR|Fri, 20 Sep 2013 11:58:25 -0400|visitor|content|/img/logo.png|68.100.62.42|live|404 - Page not found. Visitor came directly to this page and may have typed the URL incorrectly.
ERROR|Fri, 20 Sep 2013 11:58:33 -0400|visitor|content|/img/logo.png|68.100.62.42|live|404 - Page not found. Visitor came directly to this page and may have typed the URL incorrectly.
ERROR|Fri, 20 Sep 2013 11:58:41 -0400|visitor|content|/img/logo.png|68.100.62.42|live|404 - Page not found. Visitor came directly to this page and may have typed the URL incorrectly.
ERROR|Fri, 20 Sep 2013 11:58:54 -0400|visitor|content|/img/logo.png|68.100.62.42|live|404 - Page not found. Visitor came directly to this page and may have typed the URL incorrectly.
ERROR|Fri, 20 Sep 2013 11:59:12 -0400|visitor|content|/img/logo.png|68.100.62.42|live|404 - Page not found. Visitor came directly to this page and may have typed the URL incorrectly.
ERROR|Fri, 20 Sep 2013 11:59:23 -0400|visitor|content|/img/logo.png|68.100.62.42|live|404 - Page not found. Visitor came directly to this page and may have typed the URL incorrectly.
ERROR|Fri, 20 Sep 2013 11:59:25 -0400|visitor|content|/img/logo.png|68.100.62.42|live|404 - Page not found. Visitor came directly to this page and may have typed the URL incorrectly.
ERROR|Fri, 20 Sep 2013 11:59:32 -0400|visitor|content|/img/logo.png|68.100.62.42|live|404 - Page not found. Visitor came directly to this page and may have typed the URL incorrectly.
ERROR|Fri, 20 Sep 2013 11:59:52 -0400|visitor|content|/img/logo.png|68.100.62.42|live|404 - Page not found. Visitor came directly to this page and may have typed the URL incorrectly.
ERROR|Fri, 20 Sep 2013 12:00:11 -0400|visitor|content|/img/logo.png|68.100.62.42|live|404 - Page not found. Visitor came directly to this page and may have typed the URL incorrectly.
ERROR|Fri, 20 Sep 2013 12:00:18 -0400|visitor|content|/img/logo.png|68.100.62.42|live|404 - Page not found. Visitor came directly to this page and may have typed the URL incorrectly.
ERROR|Fri, 20 Sep 2013 12:00:25 -0400|visitor|content|/img/logo.png|68.100.62.42|live|404 - Page not found. Visitor came directly to this page and may have typed the URL incorrectly.
ERROR|Fri, 20 Sep 2013 12:00:50 -0400|visitor|content|/img/logo.png|68.100.62.42|live|404 - Page not found. Visitor came directly to this page and may have typed the URL incorrectly.
ERROR|Fri, 20 Sep 2013 12:01:01 -0400|visitor|content|/img/logo.png|68.100.62.42|live|404 - Page not found. Visitor came directly to this page and may have typed the URL incorrectly.
ERROR|Fri, 20 Sep 2013 12:04:56 -0400|visitor|content|/img/logo.png|149.7.44.241|live|404 - Page not found. Visitor came directly to this page and may have typed the URL incorrectly.
ERROR|Fri, 20 Sep 2013 12:13:07 -0400|visitor|content|/img/logo.png|8.28.19.85|live|404 - Page not found. Visitor came directly to this page and may have typed the URL incorrectly.
ERROR|Fri, 20 Sep 2013 12:13:07 -0400|visitor|content|/img/logo.png|8.28.19.85|live|404 - Page not found. Visitor came directly to this page and may have typed the URL incorrectly.
ERROR|Fri, 20 Sep 2013 12:18:56 -0400|visitor|content|/img/logo.png|195.202.152.136|live|404 - Page not found. Visitor came directly to this page and may have typed the URL incorrectly.
ERROR|Fri, 20 Sep 2013 12:56:33 -0400|visitor|content|/img/logo.png|68.100.62.42|live|404 - Page not found. Visitor came directly to this page and may have typed the URL incorrectly.
ERROR|Fri, 20 Sep 2013 12:59:11 -0400|visitor|content|/img/logo.png|68.100.62.42|live|404 - Page not found. Visitor came directly to this page and may have typed the URL incorrectly.
ERROR|Fri, 20 Sep 2013 12:59:13 -0400|visitor|content|/img/logo.png|68.100.62.42|live|404 - Page not found. Visitor came directly to this page and may have typed the URL incorrectly.
ERROR|Fri, 20 Sep 2013 12:59:18 -0400|visitor|content|/img/logo.png|68.100.62.42|live|404 - Page not found. Visitor came directly to this page and may have typed the URL incorrectly.
ERROR|Fri, 20 Sep 2013 12:59:21 -0400|visitor|content|/img/logo.png|68.100.62.42|live|404 - Page not found. Visitor came directly to this page and may have typed the URL incorrectly.
ERROR|Fri, 20 Sep 2013 12:59:24 -0400|visitor|content|/img/logo.png|68.100.62.42|live|404 - Page not found. Visitor came directly to this page and may have typed the URL incorrectly.
ERROR|Fri, 20 Sep 2013 12:59:30 -0400|visitor|content|/img/logo.png|68.100.62.42|live|404 - Page not found. Visitor came directly to this page and may have typed the URL incorrectly.
ERROR|Fri, 20 Sep 2013 12:59:31 -0400|visitor|content|/img/logo.png|68.100.62.42|live|404 - Page not found. Visitor came directly to this page and may have typed the URL incorrectly.
ERROR|Fri, 20 Sep 2013 12:59:32 -0400|visitor|content|/img/logo.png|68.100.62.42|live|404 - Page not found. Visitor came directly to this page and may have typed the URL incorrectly.
ERROR|Fri, 20 Sep 2013 12:59:37 -0400|visitor|content|/img/logo.png|68.100.62.42|live|404 - Page not found. Visitor came directly to this page and may have typed the URL incorrectly.
ERROR|Fri, 20 Sep 2013 12:59:54 -0400|visitor|content|/img/logo.png|68.100.62.42|live|404 - Page not found. Visitor came directly to this page and may have typed the URL incorrectly.
ERROR|Fri, 20 Sep 2013 13:00:12 -0400|visitor|content|/img/logo.png|68.100.62.42|live|404 - Page not found. Visitor came directly to this page and may have typed the URL incorrectly.
ERROR|Fri, 20 Sep 2013 13:00:13 -0400|visitor|content|/img/logo.png|68.100.62.42|live|404 - Page not found. Visitor came directly to this page and may have typed the URL incorrectly.
ERROR|Fri, 20 Sep 2013 13:00:16 -0400|visitor|content|/img/logo.png|68.100.62.42|live|404 - Page not found. Visitor came directly to this page and may have typed the URL incorrectly.
ERROR|Fri, 20 Sep 2013 13:00:21 -0400|visitor|content|/img/logo.png|68.100.62.42|live|404 - Page not found. Visitor came directly to this page and may have typed the URL incorrectly.
ERROR|Fri, 20 Sep 2013 13:05:36 -0400|visitor|content|/img/logo.png|174.227.192.147|live|404 - Page not found. Visitor came directly to this page and may have typed the URL incorrectly.
ERROR|Fri, 20 Sep 2013 13:09:39 -0400|visitor|content|/img/logo.png|68.100.62.42|live|404 - Page not found. Visitor came directly to this page and may have typed the URL incorrectly.
ERROR|Fri, 20 Sep 2013 13:09:56 -0400|visitor|content|/img/logo.png|68.100.62.42|live|404 - Page not found. Visitor came directly to this page and may have typed the URL incorrectly.
ERROR|Fri, 20 Sep 2013 13:09:57 -0400|visitor|content|/img/logo.png|68.100.62.42|live|404 - Page not found. Visitor came directly to this page and may have typed the URL incorrectly.
ERROR|Fri, 20 Sep 2013 13:09:58 -0400|visitor|content|/img/logo.png|68.100.62.42|live|404 - Page not found. Visitor came directly to this page and may have typed the URL incorrectly.
ERROR|Fri, 20 Sep 2013 13:10:00 -0400|visitor|content|/img/logo.png|68.100.62.42|live|404 - Page not found. Visitor came directly to this page and may have typed the URL incorrectly.
ERROR|Fri, 20 Sep 2013 13:10:01 -0400|visitor|content|/img/logo.png|68.100.62.42|live|404 - Page not found. Visitor came directly to this page and may have typed the URL incorrectly.
ERROR|Fri, 20 Sep 2013 13:10:03 -0400|visitor|content|/img/logo.png|68.100.62.42|live|404 - Page not found. Visitor came directly to this page and may have typed the URL incorrectly.
ERROR|Fri, 20 Sep 2013 13:10:07 -0400|visitor|content|/img/logo.png|68.100.62.42|live|404 - Page not found. Visitor came directly to this page and may have typed the URL incorrectly.
ERROR|Fri, 20 Sep 2013 13:10:09 -0400|visitor|content|/img/logo.png|68.100.62.42|live|404 - Page not found. Visitor came directly to this page and may have typed the URL incorrectly.
ERROR|Fri, 20 Sep 2013 13:10:30 -0400|visitor|content|/img/logo.png|68.100.62.42|live|404 - Page not found. Visitor came directly to this page and may have typed the URL incorrectly.
ERROR|Fri, 20 Sep 2013 13:10:36 -0400|visitor|content|/img/logo.png|68.100.62.42|live|404 - Page not found. Visitor came directly to this page and may have typed the URL incorrectly.
ERROR|Fri, 20 Sep 2013 13:10:58 -0400|visitor|content|/img/logo.png|68.100.62.42|live|404 - Page not found. Visitor came directly to this page and may have typed the URL incorrectly.
ERROR|Fri, 20 Sep 2013 13:11:32 -0400|visitor|content|/img/logo.png|68.100.62.42|live|404 - Page not found. Visitor came directly to this page and may have typed the URL incorrectly.
ERROR|Fri, 20 Sep 2013 13:11:57 -0400|visitor|content|/img/logo.png|68.100.62.42|live|404 - Page not found. Visitor came directly to this page and may have typed the URL incorrectly.
ERROR|Fri, 20 Sep 2013 13:12:00 -0400|visitor|content|/img/logo.png|68.100.62.42|live|404 - Page not found. Visitor came directly to this page and may have typed the URL incorrectly.
ERROR|Fri, 20 Sep 2013 13:12:24 -0400|visitor|content|/img/logo.png|68.100.62.42|live|404 - Page not found. Visitor came directly to this page and may have typed the URL incorrectly.
ERROR|Fri, 20 Sep 2013 13:12:26 -0400|visitor|content|/img/logo.png|68.100.62.42|live|404 - Page not found. Visitor came directly to this page and may have typed the URL incorrectly.
ERROR|Fri, 20 Sep 2013 13:12:30 -0400|visitor|content|/img/logo.png|68.100.62.42|live|404 - Page not found. Visitor came directly to this page and may have typed the URL incorrectly.
ERROR|Fri, 20 Sep 2013 13:12:49 -0400|visitor|content|/img/logo.png|68.100.62.42|live|404 - Page not found. Visitor came directly to this page and may have typed the URL incorrectly.
ERROR|Fri, 20 Sep 2013 13:12:57 -0400|visitor|content|/img/logo.png|68.100.62.42|live|404 - Page not found. Visitor came directly to this page and may have typed the URL incorrectly.
ERROR|Fri, 20 Sep 2013 13:13:09 -0400|visitor|content|/img/logo.png|68.100.62.42|live|404 - Page not found. Visitor came directly to this page and may have typed the URL incorrectly.
ERROR|Fri, 20 Sep 2013 13:13:18 -0400|visitor|content|/img/logo.png|68.100.62.42|live|404 - Page not found. Visitor came directly to this page and may have typed the URL incorrectly.
ERROR|Fri, 20 Sep 2013 13:13:26 -0400|visitor|content|/img/logo.png|68.100.62.42|live|404 - Page not found. Visitor came directly to this page and may have typed the URL incorrectly.
ERROR|Fri, 20 Sep 2013 13:13:44 -0400|visitor|content|/img/logo.png|68.100.62.42|live|404 - Page not found. Visitor came directly to this page and may have typed the URL incorrectly.
ERROR|Fri, 20 Sep 2013 13:13:51 -0400|visitor|content|/img/logo.png|68.100.62.42|live|404 - Page not found. Visitor came directly to this page and may have typed the URL incorrectly.
ERROR|Fri, 20 Sep 2013 13:13:57 -0400|visitor|content|/img/logo.png|68.100.62.42|live|404 - Page not found. Visitor came directly to this page and may have typed the URL incorrectly.
ERROR|Fri, 20 Sep 2013 13:14:08 -0400|visitor|content|/img/logo.png|68.100.62.42|live|404 - Page not found. Visitor came directly to this page and may have typed the URL incorrectly.
ERROR|Fri, 20 Sep 2013 13:14:16 -0400|visitor|content|/img/logo.png|68.100.62.42|live|404 - Page not found. Visitor came directly to this page and may have typed the URL incorrectly.
ERROR|Fri, 20 Sep 2013 13:14:23 -0400|visitor|content|/img/logo.png|71.38.157.148|live|404 - Page not found. Visitor came directly to this page and may have typed the URL incorrectly.
ERROR|Fri, 20 Sep 2013 13:14:33 -0400|visitor|content|/img/logo.png|68.100.62.42|live|404 - Page not found. Visitor came directly to this page and may have typed the URL incorrectly.
ERROR|Fri, 20 Sep 2013 13:14:57 -0400|visitor|content|/img/logo.png|68.100.62.42|live|404 - Page not found. Visitor came directly to this page and may have typed the URL incorrectly.
ERROR|Fri, 20 Sep 2013 13:15:04 -0400|visitor|content|/img/logo.png|68.100.62.42|live|404 - Page not found. Visitor came directly to this page and may have typed the URL incorrectly.
ERROR|Fri, 20 Sep 2013 13:15:06 -0400|visitor|content|/img/logo.png|68.100.62.42|live|404 - Page not found. Visitor came directly to this page and may have typed the URL incorrectly.
ERROR|Fri, 20 Sep 2013 13:15:07 -0400|visitor|content|/img/logo.png|68.100.62.42|live|404 - Page not found. Visitor came directly to this page and may have typed the URL incorrectly.
ERROR|Fri, 20 Sep 2013 13:21:40 -0400|visitor|content|/img/logo.png|174.226.66.221|live|404 - Page not found. Visitor came directly to this page and may have typed the URL incorrectly.
ERROR|Fri, 20 Sep 2013 13:55:55 -0400|visitor|content|/img/logo.png|98.175.102.8|live|404 - Page not found. Visitor came directly to this page and may have typed the URL incorrectly.
INFO|Fri, 20 Sep 2013 14:02:43 -0400|site|favicon|/favicon.ico|182.64.249.119|live|The site favicon could not be found.
ERROR|Fri, 20 Sep 2013 14:08:16 -0400|visitor|content|/img/logo.png|70.192.200.53|live|404 - Page not found. Visitor came directly to this page and may have typed the URL incorrectly.
ERROR|Fri, 20 Sep 2013 15:15:44 -0400|visitor|content|/robots.txt|77.75.77.11|live|404 - Page not found. Visitor came directly to this page and may have typed the URL incorrectly.
ERROR|Fri, 20 Sep 2013 15:43:19 -0400|visitor|content|/img/logo.png|65.222.235.120|live|404 - Page not found. Visitor came directly to this page and may have typed the URL incorrectly.
ERROR|Fri, 20 Sep 2013 15:50:20 -0400|visitor|content|/img/logo.png|68.100.62.42|live|404 - Page not found. Visitor came directly to this page and may have typed the URL incorrectly.
ERROR|Fri, 20 Sep 2013 16:03:44 -0400|visitor|content|/img/logo.png|69.255.195.123|live|404 - Page not found. Visitor came directly to this page and may have typed the URL incorrectly.
ERROR|Fri, 20 Sep 2013 16:03:46 -0400|visitor|content|/img/logo.png|69.255.195.123|live|404 - Page not found. Visitor came directly to this page and may have typed the URL incorrectly.
ERROR|Fri, 20 Sep 2013 16:19:57 -0400|visitor|content|/img/logo.png|174.255.37.116|live|404 - Page not found. Visitor came directly to this page and may have typed the URL incorrectly.
ERROR|Fri, 20 Sep 2013 17:01:08 -0400|visitor|content|/img/logo.png|76.76.212.13|live|404 - Page not found. Visitor came directly to this page and may have typed the URL incorrectly.
ERROR|Fri, 20 Sep 2013 17:21:30 -0400|visitor|content|/img/logo.png|76.76.212.13|live|404 - Page not found. Visitor came directly to this page and may have typed the URL incorrectly.
ERROR|Fri, 20 Sep 2013 17:21:31 -0400|visitor|content|/img/logo.png|76.76.212.13|live|404 - Page not found. Visitor came directly to this page and may have typed the URL incorrectly.
ERROR|Fri, 20 Sep 2013 17:21:37 -0400|visitor|content|/img/logo.png|76.76.212.13|live|404 - Page not found. Visitor came directly to this page and may have typed the URL incorrectly.
ERROR|Fri, 20 Sep 2013 17:21:39 -0400|visitor|content|/img/logo.png|76.76.212.13|live|404 - Page not found. Visitor came directly to this page and may have typed the URL incorrectly.
ERROR|Fri, 20 Sep 2013 17:21:43 -0400|visitor|content|/img/logo.png|69.242.117.69|live|404 - Page not found. Visitor came directly to this page and may have typed the URL incorrectly.
ERROR|Fri, 20 Sep 2013 17:21:55 -0400|visitor|content|/img/logo.png|76.76.212.13|live|404 - Page not found. Visitor came directly to this page and may have typed the URL incorrectly.
ERROR|Fri, 20 Sep 2013 17:21:57 -0400|visitor|content|/img/logo.png|76.76.212.13|live|404 - Page not found. Visitor came directly to this page and may have typed the URL incorrectly.
ERROR|Fri, 20 Sep 2013 17:22:04 -0400|visitor|content|/img/logo.png|76.76.212.13|live|404 - Page not found. Visitor came directly to this page and may have typed the URL incorrectly.
ERROR|Fri, 20 Sep 2013 17:22:08 -0400|visitor|content|/img/logo.png|76.76.212.13|live|404 - Page not found. Visitor came directly to this page and may have typed the URL incorrectly.
ERROR|Fri, 20 Sep 2013 17:22:30 -0400|visitor|content|/img/logo.png|76.76.212.13|live|404 - Page not found. Visitor came directly to this page and may have typed the URL incorrectly.
ERROR|Fri, 20 Sep 2013 17:23:19 -0400|visitor|content|/img/logo.png|76.76.212.13|live|404 - Page not found. Visitor came directly to this page and may have typed the URL incorrectly.
ERROR|Fri, 20 Sep 2013 17:24:21 -0400|visitor|content|/img/logo.png|76.76.212.13|live|404 - Page not found. Visitor came directly to this page and may have typed the URL incorrectly.
ERROR|Fri, 20 Sep 2013 17:24:27 -0400|visitor|content|/img/logo.png|76.76.212.13|live|404 - Page not found. Visitor came directly to this page and may have typed the URL incorrectly.
ERROR|Fri, 20 Sep 2013 17:24:56 -0400|visitor|content|/img/logo.png|76.76.212.13|live|404 - Page not found. Visitor came directly to this page and may have typed the URL incorrectly.
ERROR|Fri, 20 Sep 2013 17:25:41 -0400|visitor|content|/img/logo.png|76.76.212.13|live|404 - Page not found. Visitor came directly to this page and may have typed the URL incorrectly.
ERROR|Fri, 20 Sep 2013 17:25:46 -0400|visitor|content|/img/logo.png|76.76.212.13|live|404 - Page not found. Visitor came directly to this page and may have typed the URL incorrectly.
ERROR|Fri, 20 Sep 2013 17:33:27 -0400|visitor|content|/img/logo.png|76.76.212.13|live|404 - Page not found. Visitor came directly to this page and may have typed the URL incorrectly.
ERROR|Fri, 20 Sep 2013 17:33:29 -0400|visitor|content|/img/logo.png|76.76.212.13|live|404 - Page not found. Visitor came directly to this page and may have typed the URL incorrectly.
ERROR|Fri, 20 Sep 2013 17:33:33 -0400|visitor|content|/img/logo.png|76.76.212.13|live|404 - Page not found. Visitor came directly to this page and may have typed the URL incorrectly.
ERROR|Fri, 20 Sep 2013 17:33:38 -0400|visitor|content|/img/logo.png|76.76.212.13|live|404 - Page not found. Visitor came directly to this page and may have typed the URL incorrectly.
ERROR|Fri, 20 Sep 2013 17:33:40 -0400|visitor|content|/img/logo.png|76.76.212.13|live|404 - Page not found. Visitor came directly to this page and may have typed the URL incorrectly.
ERROR|Fri, 20 Sep 2013 17:33:40 -0400|visitor|content|/img/logo.png|76.76.212.13|live|404 - Page not found. Visitor came directly to this page and may have typed the URL incorrectly.
ERROR|Fri, 20 Sep 2013 17:33:41 -0400|visitor|content|/img/logo.png|76.76.212.13|live|404 - Page not found. Visitor came directly to this page and may have typed the URL incorrectly.
ERROR|Fri, 20 Sep 2013 17:49:00 -0400|visitor|content|/FW_TEST|5.10.83.89|live|404 - Page not found. Visitor came directly to this page and may have typed the URL incorrectly.
ERROR|Fri, 20 Sep 2013 19:03:21 -0400|external|content|/img/logo.png|66.44.118.63|live|404 - Page not found. User clicked an outside bad link at <a href="http://us-mg5.mail.yahoo.com/neo/launch?.rand=2liua3kududme">http://us-mg5.mail.yahoo.com/neo/launch?.rand=2liua3kududme</a>.
ERROR|Fri, 20 Sep 2013 19:31:20 -0400|visitor|content|/img/logo.png|71.191.73.82|live|404 - Page not found. Visitor came directly to this page and may have typed the URL incorrectly.
ERROR|Fri, 20 Sep 2013 20:02:40 -0400|external|content|/img/logo.png|66.44.118.63|live|404 - Page not found. User clicked an outside bad link at <a href="http://us-mg5.mail.yahoo.com/neo/launch?.rand=cevhph59g3mo5">http://us-mg5.mail.yahoo.com/neo/launch?.rand=cevhph59g3mo5</a>.
ERROR|Fri, 20 Sep 2013 20:35:17 -0400|visitor|content|/img/logo.png|173.66.88.229|live|404 - Page not found. Visitor came directly to this page and may have typed the URL incorrectly.
ERROR|Fri, 20 Sep 2013 20:57:51 -0400|visitor|content|/img/logo.png|96.255.195.254|live|404 - Page not found. Visitor came directly to this page and may have typed the URL incorrectly.
ERROR|Fri, 20 Sep 2013 21:00:11 -0400|visitor|content|/img/logo.png|71.191.73.82|live|404 - Page not found. Visitor came directly to this page and may have typed the URL incorrectly.
ERROR|Fri, 20 Sep 2013 22:05:33 -0400|visitor|content|/img/logo.png|69.116.1.180|live|404 - Page not found. Visitor came directly to this page and may have typed the URL incorrectly.
ERROR|Fri, 20 Sep 2013 23:26:36 -0400|visitor|content|/robots.txt|66.249.73.109|live|404 - Page not found. Visitor came directly to this page and may have typed the URL incorrectly.
ERROR|Fri, 20 Sep 2013 23:28:51 -0400|visitor|content|/robots.txt|208.115.113.91|live|404 - Page not found. Visitor came directly to this page and may have typed the URL incorrectly.
INFO|Fri, 20 Sep 2013 23:53:14 -0400|site|favicon|/favicon.ico|108.28.179.98|live|The site favicon could not be found.
