INFO|Thu, 06 Jun 2013 00:00:58 -0400|site|favicon|/favicon.ico|69.243.20.95|live|The site favicon could not be found.
ERROR|Thu, 06 Jun 2013 00:20:28 -0400|visitor|content|/img/logo.png|64.134.220.203|live|404 - Page not found. Visitor came directly to this page and may have typed the URL incorrectly.
ERROR|Thu, 06 Jun 2013 01:21:44 -0400|visitor|content|/robots.txt|208.115.111.75|live|404 - Page not found. Visitor came directly to this page and may have typed the URL incorrectly.
ERROR|Thu, 06 Jun 2013 01:56:02 -0400|visitor|content|/FW_TEST|185.7.214.154|live|404 - Page not found. Visitor came directly to this page and may have typed the URL incorrectly.
ERROR|Thu, 06 Jun 2013 01:56:05 -0400|visitor|content|/about/FW_TEST|185.7.214.154|live|404 - Page not found. Visitor came directly to this page and may have typed the URL incorrectly.
ERROR|Thu, 06 Jun 2013 01:56:06 -0400|visitor|content|/blog/FW_TEST|185.7.214.154|live|404 - Page not found. Visitor came directly to this page and may have typed the URL incorrectly.
ERROR|Thu, 06 Jun 2013 01:56:10 -0400|visitor|content|/contact/FW_TEST|185.7.214.154|live|404 - Page not found. Visitor came directly to this page and may have typed the URL incorrectly.
ERROR|Thu, 06 Jun 2013 01:56:11 -0400|visitor|content|/corporate-wellness/FW_TEST|185.7.214.154|live|404 - Page not found. Visitor came directly to this page and may have typed the URL incorrectly.
ERROR|Thu, 06 Jun 2013 01:56:11 -0400|visitor|content|/individual-consultations/FW_TEST|185.7.214.154|live|404 - Page not found. Visitor came directly to this page and may have typed the URL incorrectly.
ERROR|Thu, 06 Jun 2013 01:56:12 -0400|visitor|content|/testimonials/FW_TEST|185.7.214.154|live|404 - Page not found. Visitor came directly to this page and may have typed the URL incorrectly.
ERROR|Thu, 06 Jun 2013 02:09:51 -0400|visitor|content|/img/logo.png|24.127.48.168|live|404 - Page not found. Visitor came directly to this page and may have typed the URL incorrectly.
ERROR|Thu, 06 Jun 2013 03:32:11 -0400|visitor|content|/robots.txt|218.30.103.148|live|404 - Page not found. Visitor came directly to this page and may have typed the URL incorrectly.
ERROR|Thu, 06 Jun 2013 05:28:29 -0400|visitor|content|/img/logo.png|216.40.75.23|live|404 - Page not found. Visitor came directly to this page and may have typed the URL incorrectly.
ERROR|Thu, 06 Jun 2013 05:33:02 -0400|visitor|content|/img/logo.png|69.243.16.236|live|404 - Page not found. Visitor came directly to this page and may have typed the URL incorrectly.
ERROR|Thu, 06 Jun 2013 05:34:03 -0400|visitor|content|/img/logo.png|69.243.16.236|live|404 - Page not found. Visitor came directly to this page and may have typed the URL incorrectly.
ERROR|Thu, 06 Jun 2013 05:34:54 -0400|visitor|content|/img/logo.png|69.243.16.236|live|404 - Page not found. Visitor came directly to this page and may have typed the URL incorrectly.
INFO|Thu, 06 Jun 2013 05:41:44 -0400|site|favicon|/favicon.ico|148.177.242.67|live|The site favicon could not be found.
INFO|Thu, 06 Jun 2013 05:41:45 -0400|site|favicon|/favicon.ico|148.177.242.67|live|The site favicon could not be found.
INFO|Thu, 06 Jun 2013 05:41:49 -0400|site|favicon|/favicon.ico|148.177.242.67|live|The site favicon could not be found.
INFO|Thu, 06 Jun 2013 05:42:00 -0400|site|favicon|/favicon.ico|148.177.242.67|live|The site favicon could not be found.
INFO|Thu, 06 Jun 2013 05:42:09 -0400|site|favicon|/favicon.ico|148.177.242.67|live|The site favicon could not be found.
INFO|Thu, 06 Jun 2013 05:42:10 -0400|site|favicon|/favicon.ico|148.177.242.67|live|The site favicon could not be found.
INFO|Thu, 06 Jun 2013 05:42:14 -0400|site|favicon|/favicon.ico|148.177.242.67|live|The site favicon could not be found.
ERROR|Thu, 06 Jun 2013 05:59:31 -0400|visitor|content|/robots.txt|77.75.77.32|live|404 - Page not found. Visitor came directly to this page and may have typed the URL incorrectly.
ERROR|Thu, 06 Jun 2013 06:20:27 -0400|visitor|content|/blog/be-a-thanksgiving-lifeguard-save-your-drowning-veggies/|66.249.75.73|live|404 - Page not found. Visitor came directly to this page and may have typed the URL incorrectly.
ERROR|Thu, 06 Jun 2013 06:38:36 -0400|visitor|content|/img/logo.png|174.236.200.22|live|404 - Page not found. Visitor came directly to this page and may have typed the URL incorrectly.
ERROR|Thu, 06 Jun 2013 06:39:00 -0400|visitor|content|/img/logo.png|174.236.200.22|live|404 - Page not found. Visitor came directly to this page and may have typed the URL incorrectly.
INFO|Thu, 06 Jun 2013 06:49:16 -0400|site|favicon|/favicon.ico|148.177.242.67|live|The site favicon could not be found.
INFO|Thu, 06 Jun 2013 06:49:18 -0400|site|favicon|/favicon.ico|148.177.242.67|live|The site favicon could not be found.
ERROR|Thu, 06 Jun 2013 07:04:27 -0400|visitor|content|/robots.txt|46.229.164.97|live|404 - Page not found. Visitor came directly to this page and may have typed the URL incorrectly.
ERROR|Thu, 06 Jun 2013 07:10:59 -0400|visitor|content|/img/logo.png|174.236.200.22|live|404 - Page not found. Visitor came directly to this page and may have typed the URL incorrectly.
ERROR|Thu, 06 Jun 2013 07:29:01 -0400|visitor|content|/img/logo.png|98.169.247.217|live|404 - Page not found. Visitor came directly to this page and may have typed the URL incorrectly.
ERROR|Thu, 06 Jun 2013 07:39:54 -0400|visitor|content|/robots.txt|66.249.73.109|live|404 - Page not found. Visitor came directly to this page and may have typed the URL incorrectly.
ERROR|Thu, 06 Jun 2013 08:02:10 -0400|visitor|content|/img/logo.png|98.169.247.217|live|404 - Page not found. Visitor came directly to this page and may have typed the URL incorrectly.
ERROR|Thu, 06 Jun 2013 08:02:10 -0400|visitor|content|/img/logo.png|98.169.247.217|live|404 - Page not found. Visitor came directly to this page and may have typed the URL incorrectly.
ERROR|Thu, 06 Jun 2013 08:02:10 -0400|visitor|content|/img/logo.png|98.169.247.217|live|404 - Page not found. Visitor came directly to this page and may have typed the URL incorrectly.
ERROR|Thu, 06 Jun 2013 08:02:10 -0400|visitor|content|/img/logo.png|98.169.247.217|live|404 - Page not found. Visitor came directly to this page and may have typed the URL incorrectly.
ERROR|Thu, 06 Jun 2013 08:02:10 -0400|visitor|content|/img/logo.png|98.169.247.217|live|404 - Page not found. Visitor came directly to this page and may have typed the URL incorrectly.
ERROR|Thu, 06 Jun 2013 08:02:10 -0400|visitor|content|/img/logo.png|98.169.247.217|live|404 - Page not found. Visitor came directly to this page and may have typed the URL incorrectly.
ERROR|Thu, 06 Jun 2013 08:27:24 -0400|external|content|/img/logo.png|108.48.83.186|live|404 - Page not found. User clicked an outside bad link at <a href="http://us.f841.mail.yahoo.com/neo/launch?reason=ignore&rs=1">http://us.f841.mail.yahoo.com/neo/launch?reason=ignore&rs=1</a>.
ERROR|Thu, 06 Jun 2013 08:27:46 -0400|external|content|/img/logo.png|108.48.83.186|live|404 - Page not found. User clicked an outside bad link at <a href="http://us.f841.mail.yahoo.com/neo/launch?reason=ignore&rs=1">http://us.f841.mail.yahoo.com/neo/launch?reason=ignore&rs=1</a>.
ERROR|Thu, 06 Jun 2013 11:44:37 -0400|visitor|content|/img/logo.png|174.239.99.30|live|404 - Page not found. Visitor came directly to this page and may have typed the URL incorrectly.
ERROR|Thu, 06 Jun 2013 11:44:43 -0400|visitor|content|/img/logo.png|174.239.99.30|live|404 - Page not found. Visitor came directly to this page and may have typed the URL incorrectly.
ERROR|Thu, 06 Jun 2013 11:44:54 -0400|visitor|content|/img/logo.png|174.239.99.30|live|404 - Page not found. Visitor came directly to this page and may have typed the URL incorrectly.
ERROR|Thu, 06 Jun 2013 11:45:24 -0400|visitor|content|/img/logo.png|24.127.48.168|live|404 - Page not found. Visitor came directly to this page and may have typed the URL incorrectly.
ERROR|Thu, 06 Jun 2013 12:04:37 -0400|visitor|content|/img/logo.png|174.255.18.228|live|404 - Page not found. Visitor came directly to this page and may have typed the URL incorrectly.
ERROR|Thu, 06 Jun 2013 12:37:07 -0400|visitor|content|/robots.txt|69.197.129.42|live|404 - Page not found. Visitor came directly to this page and may have typed the URL incorrectly.
ERROR|Thu, 06 Jun 2013 12:42:32 -0400|visitor|content|/img/logo.png|174.239.99.30|live|404 - Page not found. Visitor came directly to this page and may have typed the URL incorrectly.
ERROR|Thu, 06 Jun 2013 12:42:33 -0400|external|content|/img/logo.png|108.48.83.186|live|404 - Page not found. User clicked an outside bad link at <a href="http://us.f841.mail.yahoo.com/neo/launch?reason=ignore&rs=1">http://us.f841.mail.yahoo.com/neo/launch?reason=ignore&rs=1</a>.
ERROR|Thu, 06 Jun 2013 12:42:43 -0400|visitor|content|/img/logo.png|174.239.99.30|live|404 - Page not found. Visitor came directly to this page and may have typed the URL incorrectly.
ERROR|Thu, 06 Jun 2013 12:45:01 -0400|visitor|content|/img/logo.png|24.127.48.168|live|404 - Page not found. Visitor came directly to this page and may have typed the URL incorrectly.
ERROR|Thu, 06 Jun 2013 12:47:45 -0400|visitor|content|/img/logo.png|24.127.48.168|live|404 - Page not found. Visitor came directly to this page and may have typed the URL incorrectly.
ERROR|Thu, 06 Jun 2013 12:48:31 -0400|visitor|content|/img/logo.png|24.127.48.168|live|404 - Page not found. Visitor came directly to this page and may have typed the URL incorrectly.
ERROR|Thu, 06 Jun 2013 13:26:06 -0400|external|content|/img/logo.png|108.48.83.186|live|404 - Page not found. User clicked an outside bad link at <a href="http://us.f841.mail.yahoo.com/neo/launch?reason=ignore&rs=1">http://us.f841.mail.yahoo.com/neo/launch?reason=ignore&rs=1</a>.
ERROR|Thu, 06 Jun 2013 13:26:28 -0400|external|content|/img/logo.png|108.48.83.186|live|404 - Page not found. User clicked an outside bad link at <a href="http://us.f841.mail.yahoo.com/neo/launch?reason=ignore&rs=1">http://us.f841.mail.yahoo.com/neo/launch?reason=ignore&rs=1</a>.
ERROR|Thu, 06 Jun 2013 13:41:45 -0400|visitor|content|/robots.txt|66.249.73.172|live|404 - Page not found. Visitor came directly to this page and may have typed the URL incorrectly.
ERROR|Thu, 06 Jun 2013 14:37:32 -0400|visitor|content|/img/logo.png|69.243.16.236|live|404 - Page not found. Visitor came directly to this page and may have typed the URL incorrectly.
ERROR|Thu, 06 Jun 2013 14:42:50 -0400|visitor|content|/img/logo.png|174.239.195.5|live|404 - Page not found. Visitor came directly to this page and may have typed the URL incorrectly.
ERROR|Thu, 06 Jun 2013 14:43:28 -0400|visitor|content|/img/logo.png|174.239.195.5|live|404 - Page not found. Visitor came directly to this page and may have typed the URL incorrectly.
ERROR|Thu, 06 Jun 2013 15:08:17 -0400|visitor|content|/img/logo.png|69.243.16.236|live|404 - Page not found. Visitor came directly to this page and may have typed the URL incorrectly.
ERROR|Thu, 06 Jun 2013 16:14:15 -0400|visitor|content|/img/logo.png|208.54.37.254|live|404 - Page not found. Visitor came directly to this page and may have typed the URL incorrectly.
ERROR|Thu, 06 Jun 2013 16:14:19 -0400|visitor|content|/img/logo.png|208.54.37.254|live|404 - Page not found. Visitor came directly to this page and may have typed the URL incorrectly.
ERROR|Thu, 06 Jun 2013 16:14:33 -0400|visitor|content|/img/logo.png|174.227.135.52|live|404 - Page not found. Visitor came directly to this page and may have typed the URL incorrectly.
INFO|Thu, 06 Jun 2013 16:30:56 -0400|site|favicon|/favicon.ico|131.131.1.131|live|The site favicon could not be found.
INFO|Thu, 06 Jun 2013 16:30:56 -0400|site|favicon|/favicon.ico|131.131.1.131|live|The site favicon could not be found.
ERROR|Thu, 06 Jun 2013 16:38:24 -0400|visitor|content|/img/logo.png|174.227.135.52|live|404 - Page not found. Visitor came directly to this page and may have typed the URL incorrectly.
ERROR|Thu, 06 Jun 2013 16:38:38 -0400|visitor|content|/img/logo.png|174.227.135.52|live|404 - Page not found. Visitor came directly to this page and may have typed the URL incorrectly.
ERROR|Thu, 06 Jun 2013 16:39:30 -0400|visitor|content|/img/logo.png|174.227.135.52|live|404 - Page not found. Visitor came directly to this page and may have typed the URL incorrectly.
ERROR|Thu, 06 Jun 2013 16:50:53 -0400|visitor|content|/img/logo.png|68.48.165.158|live|404 - Page not found. Visitor came directly to this page and may have typed the URL incorrectly.
INFO|Thu, 06 Jun 2013 17:05:49 -0400|site|favicon|/favicon.ico|65.222.253.58|live|The site favicon could not be found.
INFO|Thu, 06 Jun 2013 17:05:49 -0400|site|favicon|/favicon.ico|65.222.253.58|live|The site favicon could not be found.
INFO|Thu, 06 Jun 2013 17:05:50 -0400|site|favicon|/favicon.ico|65.222.253.58|live|The site favicon could not be found.
INFO|Thu, 06 Jun 2013 17:05:50 -0400|site|favicon|/favicon.ico|65.222.253.58|live|The site favicon could not be found.
INFO|Thu, 06 Jun 2013 17:05:50 -0400|site|favicon|/favicon.ico|65.222.253.58|live|The site favicon could not be found.
INFO|Thu, 06 Jun 2013 17:06:07 -0400|site|favicon|/favicon.ico|65.222.253.58|live|The site favicon could not be found.
INFO|Thu, 06 Jun 2013 17:06:07 -0400|site|favicon|/favicon.ico|65.222.253.58|live|The site favicon could not be found.
INFO|Thu, 06 Jun 2013 17:06:07 -0400|site|favicon|/favicon.ico|65.222.253.58|live|The site favicon could not be found.
INFO|Thu, 06 Jun 2013 17:06:08 -0400|site|favicon|/favicon.ico|65.222.253.58|live|The site favicon could not be found.
ERROR|Thu, 06 Jun 2013 17:08:33 -0400|visitor|content|/img/logo.png|65.222.253.58|live|404 - Page not found. Visitor came directly to this page and may have typed the URL incorrectly.
ERROR|Thu, 06 Jun 2013 17:12:15 -0400|visitor|content|/img/logo.png|68.48.165.158|live|404 - Page not found. Visitor came directly to this page and may have typed the URL incorrectly.
ERROR|Thu, 06 Jun 2013 17:15:08 -0400|visitor|content|/img/logo.png|68.49.118.150|live|404 - Page not found. Visitor came directly to this page and may have typed the URL incorrectly.
ERROR|Thu, 06 Jun 2013 18:01:34 -0400|visitor|content|/img/logo.png|71.163.100.127|live|404 - Page not found. Visitor came directly to this page and may have typed the URL incorrectly.
ERROR|Thu, 06 Jun 2013 18:01:57 -0400|visitor|content|/img/logo.png|71.163.100.127|live|404 - Page not found. Visitor came directly to this page and may have typed the URL incorrectly.
ERROR|Thu, 06 Jun 2013 18:15:50 -0400|visitor|content|/img/logo.png|68.48.165.158|live|404 - Page not found. Visitor came directly to this page and may have typed the URL incorrectly.
ERROR|Thu, 06 Jun 2013 18:56:44 -0400|visitor|content|/img/logo.png|174.239.195.5|live|404 - Page not found. Visitor came directly to this page and may have typed the URL incorrectly.
ERROR|Thu, 06 Jun 2013 19:20:29 -0400|visitor|content|/robots.txt|130.83.167.153|live|404 - Page not found. Visitor came directly to this page and may have typed the URL incorrectly.
ERROR|Thu, 06 Jun 2013 19:20:29 -0400|visitor|content|/robots.txt|130.83.167.153|live|404 - Page not found. Visitor came directly to this page and may have typed the URL incorrectly.
ERROR|Thu, 06 Jun 2013 19:21:36 -0400|visitor|content|/FW_TEST|220.181.108.143|live|404 - Page not found. Visitor came directly to this page and may have typed the URL incorrectly.
ERROR|Thu, 06 Jun 2013 19:26:49 -0400|visitor|content|/img/logo.png|68.100.133.50|live|404 - Page not found. Visitor came directly to this page and may have typed the URL incorrectly.
ERROR|Thu, 06 Jun 2013 20:11:11 -0400|external|content|/img/logo.png|108.48.83.186|live|404 - Page not found. User clicked an outside bad link at <a href="http://us.mg201.mail.yahoo.com/dc/launch?.partner=vz-acs&.rand=em0ka0udt1mtq">http://us.mg201.mail.yahoo.com/dc/launch?.partner=vz-acs&.rand=em0ka0udt1mtq</a>.
ERROR|Thu, 06 Jun 2013 20:59:35 -0400|visitor|content|/img/logo.png|69.243.20.95|live|404 - Page not found. Visitor came directly to this page and may have typed the URL incorrectly.
ERROR|Thu, 06 Jun 2013 20:59:48 -0400|visitor|content|/img/logo.png|69.243.20.95|live|404 - Page not found. Visitor came directly to this page and may have typed the URL incorrectly.
ERROR|Thu, 06 Jun 2013 21:27:33 -0400|visitor|content|/img/logo.png|68.49.118.150|live|404 - Page not found. Visitor came directly to this page and may have typed the URL incorrectly.
ERROR|Thu, 06 Jun 2013 22:27:01 -0400|visitor|content|/robots.txt|66.249.73.109|live|404 - Page not found. Visitor came directly to this page and may have typed the URL incorrectly.
ERROR|Thu, 06 Jun 2013 23:50:56 -0400|visitor|content|/img/macbook-iphone.png|69.171.237.10|live|404 - Page not found. Visitor came directly to this page and may have typed the URL incorrectly.
ERROR|Thu, 06 Jun 2013 23:50:57 -0400|visitor|content|/img/macbook-iphone.png|69.171.237.11|live|404 - Page not found. Visitor came directly to this page and may have typed the URL incorrectly.
