ERROR|Tue, 28 May 2013 03:11:11 -0400|visitor|content|/robots.txt|218.30.103.148|live|404 - Page not found. Visitor came directly to this page and may have typed the URL incorrectly.
ERROR|Tue, 28 May 2013 05:00:53 -0400|visitor|content|/blog/cookie-bites/|180.76.5.49|live|404 - Page not found. Visitor came directly to this page and may have typed the URL incorrectly.
ERROR|Tue, 28 May 2013 05:24:13 -0400|visitor|content|/FW_TEST|173.199.116.171|live|404 - Page not found. Visitor came directly to this page and may have typed the URL incorrectly.
ERROR|Tue, 28 May 2013 06:09:31 -0400|visitor|content|/robots.txt|66.249.74.71|live|404 - Page not found. Visitor came directly to this page and may have typed the URL incorrectly.
ERROR|Tue, 28 May 2013 07:11:39 -0400|visitor|content|/robots.txt|180.76.5.54|live|404 - Page not found. Visitor came directly to this page and may have typed the URL incorrectly.
ERROR|Tue, 28 May 2013 07:47:06 -0400|visitor|content|/robots.txt|157.56.92.149|live|404 - Page not found. Visitor came directly to this page and may have typed the URL incorrectly.
ERROR|Tue, 28 May 2013 08:12:03 -0400|visitor|content|/img/logo.png|72.66.115.20|live|404 - Page not found. Visitor came directly to this page and may have typed the URL incorrectly.
ERROR|Tue, 28 May 2013 08:12:06 -0400|visitor|content|/img/logo.png|72.66.115.20|live|404 - Page not found. Visitor came directly to this page and may have typed the URL incorrectly.
ERROR|Tue, 28 May 2013 08:12:46 -0400|visitor|content|/img/logo.png|72.66.115.20|live|404 - Page not found. Visitor came directly to this page and may have typed the URL incorrectly.
ERROR|Tue, 28 May 2013 08:12:48 -0400|visitor|content|/img/logo.png|72.66.115.20|live|404 - Page not found. Visitor came directly to this page and may have typed the URL incorrectly.
ERROR|Tue, 28 May 2013 09:01:01 -0400|visitor|content|/img/logo.png|68.49.118.150|live|404 - Page not found. Visitor came directly to this page and may have typed the URL incorrectly.
ERROR|Tue, 28 May 2013 09:26:39 -0400|visitor|content|/robots.txt|77.75.77.11|live|404 - Page not found. Visitor came directly to this page and may have typed the URL incorrectly.
ERROR|Tue, 28 May 2013 09:58:26 -0400|visitor|content|/img/macbook-iphone.png|66.220.152.117|live|404 - Page not found. Visitor came directly to this page and may have typed the URL incorrectly.
ERROR|Tue, 28 May 2013 09:58:27 -0400|visitor|content|/img/macbook-iphone.png|66.220.152.117|live|404 - Page not found. Visitor came directly to this page and may have typed the URL incorrectly.
INFO|Tue, 28 May 2013 10:38:02 -0400|site|favicon|/favicon.ico|72.196.232.18|live|The site favicon could not be found.
INFO|Tue, 28 May 2013 10:38:18 -0400|site|favicon|/favicon.ico|72.196.232.18|live|The site favicon could not be found.
ERROR|Tue, 28 May 2013 10:48:00 -0400|visitor|content|/robots.txt|66.249.75.73|live|404 - Page not found. Visitor came directly to this page and may have typed the URL incorrectly.
INFO|Tue, 28 May 2013 11:04:01 -0400|site|favicon|/favicon.ico|98.169.35.124|live|The site favicon could not be found.
INFO|Tue, 28 May 2013 11:04:21 -0400|site|favicon|/favicon.ico|98.169.35.124|live|The site favicon could not be found.
INFO|Tue, 28 May 2013 11:04:21 -0400|site|favicon|/favicon.ico|98.169.35.124|live|The site favicon could not be found.
INFO|Tue, 28 May 2013 11:04:22 -0400|site|favicon|/favicon.ico|98.169.35.124|live|The site favicon could not be found.
INFO|Tue, 28 May 2013 11:04:23 -0400|site|favicon|/favicon.ico|98.169.35.124|live|The site favicon could not be found.
ERROR|Tue, 28 May 2013 11:10:53 -0400|visitor|content|/robots.txt|88.75.71.152|live|404 - Page not found. Visitor came directly to this page and may have typed the URL incorrectly.
ERROR|Tue, 28 May 2013 11:10:54 -0400|visitor|content|/robots.txt|88.75.71.152|live|404 - Page not found. Visitor came directly to this page and may have typed the URL incorrectly.
ERROR|Tue, 28 May 2013 11:47:46 -0400|visitor|content|/img/logo.png|68.49.118.150|live|404 - Page not found. Visitor came directly to this page and may have typed the URL incorrectly.
ERROR|Tue, 28 May 2013 11:47:46 -0400|visitor|content|/img/logo.png|68.49.118.150|live|404 - Page not found. Visitor came directly to this page and may have typed the URL incorrectly.
ERROR|Tue, 28 May 2013 12:17:01 -0400|visitor|content|/img/macbook-iphone.png|69.171.237.15|live|404 - Page not found. Visitor came directly to this page and may have typed the URL incorrectly.
ERROR|Tue, 28 May 2013 12:29:55 -0400|visitor|content|/img/logo.png|68.49.118.150|live|404 - Page not found. Visitor came directly to this page and may have typed the URL incorrectly.
ERROR|Tue, 28 May 2013 12:29:55 -0400|visitor|content|/img/logo.png|68.49.118.150|live|404 - Page not found. Visitor came directly to this page and may have typed the URL incorrectly.
ERROR|Tue, 28 May 2013 13:17:53 -0400|visitor|content|/img/logo.png|68.100.133.50|live|404 - Page not found. Visitor came directly to this page and may have typed the URL incorrectly.
ERROR|Tue, 28 May 2013 13:20:50 -0400|visitor|content|/img/logo.png|173.13.217.85|live|404 - Page not found. Visitor came directly to this page and may have typed the URL incorrectly.
INFO|Tue, 28 May 2013 13:21:00 -0400|site|favicon|/favicon.ico|65.220.56.130|live|The site favicon could not be found.
ERROR|Tue, 28 May 2013 13:21:02 -0400|visitor|content|/img/logo.png|173.13.217.85|live|404 - Page not found. Visitor came directly to this page and may have typed the URL incorrectly.
ERROR|Tue, 28 May 2013 13:31:45 -0400|visitor|content|/img/logo.png|173.13.217.85|live|404 - Page not found. Visitor came directly to this page and may have typed the URL incorrectly.
ERROR|Tue, 28 May 2013 13:32:15 -0400|visitor|content|/img/logo.png|173.13.217.85|live|404 - Page not found. Visitor came directly to this page and may have typed the URL incorrectly.
ERROR|Tue, 28 May 2013 13:43:13 -0400|external|content|/Feedback.asp|192.151.144.154|live|404 - Page not found. User clicked an outside bad link at <a href="http://www.baidu.com/">http://www.baidu.com/</a>.
ERROR|Tue, 28 May 2013 13:43:14 -0400|external|content|/Feedback.asp|192.151.144.154|live|404 - Page not found. User clicked an outside bad link at <a href="http://www.baidu.com/">http://www.baidu.com/</a>.
ERROR|Tue, 28 May 2013 13:43:14 -0400|external|content|/admin/index.asp|192.151.144.154|live|404 - Page not found. User clicked an outside bad link at <a href="http://www.baidu.com/">http://www.baidu.com/</a>.
ERROR|Tue, 28 May 2013 13:45:50 -0400|visitor|content|/img/macbook-iphone.png|173.252.112.117|live|404 - Page not found. Visitor came directly to this page and may have typed the URL incorrectly.
ERROR|Tue, 28 May 2013 13:45:55 -0400|visitor|content|/img/macbook-iphone.png|173.252.112.113|live|404 - Page not found. Visitor came directly to this page and may have typed the URL incorrectly.
ERROR|Tue, 28 May 2013 13:50:25 -0400|visitor|content|/img/logo.png|68.100.133.50|live|404 - Page not found. Visitor came directly to this page and may have typed the URL incorrectly.
ERROR|Tue, 28 May 2013 13:57:51 -0400|visitor|content|/img/logo.png|68.100.133.50|live|404 - Page not found. Visitor came directly to this page and may have typed the URL incorrectly.
ERROR|Tue, 28 May 2013 14:09:22 -0400|visitor|content|/img/logo.png|68.100.133.50|live|404 - Page not found. Visitor came directly to this page and may have typed the URL incorrectly.
ERROR|Tue, 28 May 2013 14:15:02 -0400|visitor|content|/img/logo.png|68.100.133.50|live|404 - Page not found. Visitor came directly to this page and may have typed the URL incorrectly.
ERROR|Tue, 28 May 2013 14:18:14 -0400|visitor|content|/img/logo.png|173.13.217.85|live|404 - Page not found. Visitor came directly to this page and may have typed the URL incorrectly.
ERROR|Tue, 28 May 2013 14:19:19 -0400|visitor|content|/img/logo.png|208.54.35.225|live|404 - Page not found. Visitor came directly to this page and may have typed the URL incorrectly.
ERROR|Tue, 28 May 2013 14:19:37 -0400|visitor|content|/img/logo.png|208.54.35.225|live|404 - Page not found. Visitor came directly to this page and may have typed the URL incorrectly.
ERROR|Tue, 28 May 2013 14:19:41 -0400|visitor|content|/img/logo.png|208.54.35.225|live|404 - Page not found. Visitor came directly to this page and may have typed the URL incorrectly.
ERROR|Tue, 28 May 2013 14:19:53 -0400|visitor|content|/img/logo.png|208.54.35.225|live|404 - Page not found. Visitor came directly to this page and may have typed the URL incorrectly.
ERROR|Tue, 28 May 2013 14:19:58 -0400|visitor|content|/img/logo.png|208.54.35.225|live|404 - Page not found. Visitor came directly to this page and may have typed the URL incorrectly.
ERROR|Tue, 28 May 2013 14:20:52 -0400|visitor|content|/img/logo.png|68.100.133.50|live|404 - Page not found. Visitor came directly to this page and may have typed the URL incorrectly.
INFO|Tue, 28 May 2013 14:27:55 -0400|site|favicon|/favicon.ico|69.255.51.80|live|The site favicon could not be found.
INFO|Tue, 28 May 2013 15:03:20 -0400|site|favicon|/favicon.ico|98.169.35.124|live|The site favicon could not be found.
INFO|Tue, 28 May 2013 15:03:21 -0400|site|favicon|/favicon.ico|98.169.35.124|live|The site favicon could not be found.
INFO|Tue, 28 May 2013 15:03:21 -0400|site|favicon|/favicon.ico|98.169.35.124|live|The site favicon could not be found.
ERROR|Tue, 28 May 2013 15:33:24 -0400|visitor|content|/img/logo.png|68.49.118.150|live|404 - Page not found. Visitor came directly to this page and may have typed the URL incorrectly.
ERROR|Tue, 28 May 2013 15:40:56 -0400|visitor|content|/img/logo.png|98.169.35.124|live|404 - Page not found. Visitor came directly to this page and may have typed the URL incorrectly.
ERROR|Tue, 28 May 2013 15:40:56 -0400|visitor|content|/img/logo.png|98.169.35.124|live|404 - Page not found. Visitor came directly to this page and may have typed the URL incorrectly.
ERROR|Tue, 28 May 2013 15:41:00 -0400|visitor|content|/img/logo.png|98.169.35.124|live|404 - Page not found. Visitor came directly to this page and may have typed the URL incorrectly.
ERROR|Tue, 28 May 2013 15:48:21 -0400|visitor|content|/img/logo.png|98.169.247.217|live|404 - Page not found. Visitor came directly to this page and may have typed the URL incorrectly.
ERROR|Tue, 28 May 2013 15:48:42 -0400|visitor|content|/img/logo.png|98.169.247.217|live|404 - Page not found. Visitor came directly to this page and may have typed the URL incorrectly.
ERROR|Tue, 28 May 2013 15:52:59 -0400|visitor|content|/img/logo.png|98.169.247.217|live|404 - Page not found. Visitor came directly to this page and may have typed the URL incorrectly.
ERROR|Tue, 28 May 2013 15:54:03 -0400|visitor|content|/img/logo.png|98.169.247.217|live|404 - Page not found. Visitor came directly to this page and may have typed the URL incorrectly.
ERROR|Tue, 28 May 2013 16:08:01 -0400|visitor|content|/FW_TEST|96.35.135.154|live|404 - Page not found. Visitor came directly to this page and may have typed the URL incorrectly.
ERROR|Tue, 28 May 2013 16:58:28 -0400|visitor|content|/img/logo.png|68.100.133.50|live|404 - Page not found. Visitor came directly to this page and may have typed the URL incorrectly.
ERROR|Tue, 28 May 2013 17:04:01 -0400|external|content|/img/logo.png|98.204.179.78|live|404 - Page not found. User clicked an outside bad link at <a href="http://us.mg5.mail.yahoo.com/neo/launch?.rand=cclbs4c00at64">http://us.mg5.mail.yahoo.com/neo/launch?.rand=cclbs4c00at64</a>.
ERROR|Tue, 28 May 2013 17:07:50 -0400|visitor|content|/img/logo.png|108.18.144.217|live|404 - Page not found. Visitor came directly to this page and may have typed the URL incorrectly.
ERROR|Tue, 28 May 2013 17:08:04 -0400|visitor|content|/img/logo.png|108.18.144.217|live|404 - Page not found. Visitor came directly to this page and may have typed the URL incorrectly.
ERROR|Tue, 28 May 2013 17:41:44 -0400|visitor|content|/img/logo.png|68.238.166.234|live|404 - Page not found. Visitor came directly to this page and may have typed the URL incorrectly.
ERROR|Tue, 28 May 2013 17:41:50 -0400|visitor|content|/img/logo.png|68.238.166.234|live|404 - Page not found. Visitor came directly to this page and may have typed the URL incorrectly.
ERROR|Tue, 28 May 2013 17:41:56 -0400|visitor|content|/img/logo.png|68.238.166.234|live|404 - Page not found. Visitor came directly to this page and may have typed the URL incorrectly.
INFO|Tue, 28 May 2013 17:46:35 -0400|site|favicon|/favicon.ico|24.127.48.168|live|The site favicon could not be found.
INFO|Tue, 28 May 2013 17:46:36 -0400|site|favicon|/favicon.ico|24.127.48.168|live|The site favicon could not be found.
INFO|Tue, 28 May 2013 17:46:37 -0400|site|favicon|/favicon.ico|24.127.48.168|live|The site favicon could not be found.
ERROR|Tue, 28 May 2013 17:56:48 -0400|visitor|content|/img/logo.png|108.28.237.176|live|404 - Page not found. Visitor came directly to this page and may have typed the URL incorrectly.
ERROR|Tue, 28 May 2013 17:59:28 -0400|visitor|content|/img/logo.png|98.169.247.217|live|404 - Page not found. Visitor came directly to this page and may have typed the URL incorrectly.
ERROR|Tue, 28 May 2013 17:59:44 -0400|visitor|content|/img/logo.png|98.169.247.217|live|404 - Page not found. Visitor came directly to this page and may have typed the URL incorrectly.
ERROR|Tue, 28 May 2013 18:10:53 -0400|external|content|/img/logo.png|98.204.179.78|live|404 - Page not found. User clicked an outside bad link at <a href="http://us.mg5.mail.yahoo.com/neo/launch?.rand=cclbs4c00at64">http://us.mg5.mail.yahoo.com/neo/launch?.rand=cclbs4c00at64</a>.
ERROR|Tue, 28 May 2013 18:10:54 -0400|external|content|/img/logo.png|98.204.179.78|live|404 - Page not found. User clicked an outside bad link at <a href="http://us.mg5.mail.yahoo.com/neo/launch?.rand=cclbs4c00at64">http://us.mg5.mail.yahoo.com/neo/launch?.rand=cclbs4c00at64</a>.
ERROR|Tue, 28 May 2013 18:12:07 -0400|external|content|/img/logo.png|98.204.179.78|live|404 - Page not found. User clicked an outside bad link at <a href="http://us.mg5.mail.yahoo.com/neo/launch?.rand=cclbs4c00at64">http://us.mg5.mail.yahoo.com/neo/launch?.rand=cclbs4c00at64</a>.
ERROR|Tue, 28 May 2013 19:07:13 -0400|external|content|/img/logo.png|98.204.179.78|live|404 - Page not found. User clicked an outside bad link at <a href="http://us.mg5.mail.yahoo.com/neo/launch?.rand=cclbs4c00at64">http://us.mg5.mail.yahoo.com/neo/launch?.rand=cclbs4c00at64</a>.
ERROR|Tue, 28 May 2013 19:48:17 -0400|visitor|content|/img/logo.png|24.127.48.168|live|404 - Page not found. Visitor came directly to this page and may have typed the URL incorrectly.
ERROR|Tue, 28 May 2013 20:33:32 -0400|visitor|content|/img/macbook-iphone.png|69.171.237.10|live|404 - Page not found. Visitor came directly to this page and may have typed the URL incorrectly.
ERROR|Tue, 28 May 2013 20:33:32 -0400|visitor|content|/img/macbook-iphone.png|69.171.237.12|live|404 - Page not found. Visitor came directly to this page and may have typed the URL incorrectly.
ERROR|Tue, 28 May 2013 20:41:35 -0400|visitor|content|/img/logo.png|98.169.247.217|live|404 - Page not found. Visitor came directly to this page and may have typed the URL incorrectly.
ERROR|Tue, 28 May 2013 20:41:43 -0400|visitor|content|/img/logo.png|98.169.247.217|live|404 - Page not found. Visitor came directly to this page and may have typed the URL incorrectly.
ERROR|Tue, 28 May 2013 20:41:57 -0400|visitor|content|/img/logo.png|98.169.247.217|live|404 - Page not found. Visitor came directly to this page and may have typed the URL incorrectly.
ERROR|Tue, 28 May 2013 21:00:19 -0400|visitor|content|/img/macbook-iphone.png|173.252.112.117|live|404 - Page not found. Visitor came directly to this page and may have typed the URL incorrectly.
ERROR|Tue, 28 May 2013 21:00:20 -0400|visitor|content|/img/macbook-iphone.png|173.252.112.113|live|404 - Page not found. Visitor came directly to this page and may have typed the URL incorrectly.
ERROR|Tue, 28 May 2013 21:00:33 -0400|visitor|content|/robots.txt|1.202.219.155|live|404 - Page not found. Visitor came directly to this page and may have typed the URL incorrectly.
ERROR|Tue, 28 May 2013 21:10:17 -0400|visitor|content|/img/logo.png|68.48.165.158|live|404 - Page not found. Visitor came directly to this page and may have typed the URL incorrectly.
ERROR|Tue, 28 May 2013 21:10:48 -0400|visitor|content|/img/logo.png|68.48.165.158|live|404 - Page not found. Visitor came directly to this page and may have typed the URL incorrectly.
ERROR|Tue, 28 May 2013 21:16:17 -0400|visitor|content|/img/logo.png|173.13.217.85|live|404 - Page not found. Visitor came directly to this page and may have typed the URL incorrectly.
ERROR|Tue, 28 May 2013 21:40:00 -0400|visitor|content|/img/logo.png|108.18.144.217|live|404 - Page not found. Visitor came directly to this page and may have typed the URL incorrectly.
ERROR|Tue, 28 May 2013 21:41:09 -0400|visitor|content|/img/logo.png|108.18.144.217|live|404 - Page not found. Visitor came directly to this page and may have typed the URL incorrectly.
ERROR|Tue, 28 May 2013 21:46:57 -0400|visitor|content|/img/logo.png|68.48.165.158|live|404 - Page not found. Visitor came directly to this page and may have typed the URL incorrectly.
ERROR|Tue, 28 May 2013 21:46:58 -0400|visitor|content|/img/logo.png|68.48.165.158|live|404 - Page not found. Visitor came directly to this page and may have typed the URL incorrectly.
ERROR|Tue, 28 May 2013 21:47:12 -0400|visitor|content|/img/logo.png|68.48.165.158|live|404 - Page not found. Visitor came directly to this page and may have typed the URL incorrectly.
ERROR|Tue, 28 May 2013 22:06:27 -0400|visitor|content|/img/macbook-iphone.png|69.171.237.13|live|404 - Page not found. Visitor came directly to this page and may have typed the URL incorrectly.
ERROR|Tue, 28 May 2013 22:06:28 -0400|visitor|content|/img/macbook-iphone.png|69.171.237.14|live|404 - Page not found. Visitor came directly to this page and may have typed the URL incorrectly.
ERROR|Tue, 28 May 2013 22:36:15 -0400|visitor|content|/img/macbook-iphone.png|173.252.112.115|live|404 - Page not found. Visitor came directly to this page and may have typed the URL incorrectly.
ERROR|Tue, 28 May 2013 22:36:17 -0400|visitor|content|/img/macbook-iphone.png|173.252.112.114|live|404 - Page not found. Visitor came directly to this page and may have typed the URL incorrectly.
INFO|Tue, 28 May 2013 22:37:59 -0400|site|favicon|/favicon.ico|99.47.96.61|live|The site favicon could not be found.
ERROR|Tue, 28 May 2013 22:38:22 -0400|visitor|content|/robots.txt|69.171.229.119|live|404 - Page not found. Visitor came directly to this page and may have typed the URL incorrectly.
ERROR|Tue, 28 May 2013 23:03:22 -0400|visitor|content|/img/macbook-iphone.png|69.171.237.10|live|404 - Page not found. Visitor came directly to this page and may have typed the URL incorrectly.
ERROR|Tue, 28 May 2013 23:12:38 -0400|visitor|content|/img/macbook-iphone.png|173.252.73.113|live|404 - Page not found. Visitor came directly to this page and may have typed the URL incorrectly.
ERROR|Tue, 28 May 2013 23:12:38 -0400|visitor|content|/img/macbook-iphone.png|173.252.73.113|live|404 - Page not found. Visitor came directly to this page and may have typed the URL incorrectly.
ERROR|Tue, 28 May 2013 23:19:52 -0400|visitor|content|/img/logo.png|98.169.247.217|live|404 - Page not found. Visitor came directly to this page and may have typed the URL incorrectly.
ERROR|Tue, 28 May 2013 23:19:59 -0400|visitor|content|/img/logo.png|98.169.247.217|live|404 - Page not found. Visitor came directly to this page and may have typed the URL incorrectly.
ERROR|Tue, 28 May 2013 23:49:26 -0400|visitor|content|/img/logo.png|98.103.145.138|live|404 - Page not found. Visitor came directly to this page and may have typed the URL incorrectly.
ERROR|Tue, 28 May 2013 23:49:26 -0400|visitor|content|/img/logo.png|98.103.145.138|live|404 - Page not found. Visitor came directly to this page and may have typed the URL incorrectly.
ERROR|Tue, 28 May 2013 23:49:26 -0400|visitor|content|/img/logo.png|98.103.145.138|live|404 - Page not found. Visitor came directly to this page and may have typed the URL incorrectly.
ERROR|Tue, 28 May 2013 23:51:55 -0400|visitor|content|/img/logo.png|98.103.145.138|live|404 - Page not found. Visitor came directly to this page and may have typed the URL incorrectly.
ERROR|Tue, 28 May 2013 23:51:55 -0400|visitor|content|/img/logo.png|98.103.145.138|live|404 - Page not found. Visitor came directly to this page and may have typed the URL incorrectly.
ERROR|Tue, 28 May 2013 23:51:55 -0400|visitor|content|/img/logo.png|98.103.145.138|live|404 - Page not found. Visitor came directly to this page and may have typed the URL incorrectly.
